(export (version D)
  (design
    (source /home/ricardo/Projects/NMM-1/NMM1_Kicad/nmm1.sch)
    (date "Mon 27 Mar 2017 11:39:28 GMT")
    (tool "Eeschema 4.0.6")
    (sheet (number 1) (name /) (tstamps /)
      (title_block
        (title NMM-1)
        (company)
        (rev A)
        (date)
        (source nmm1.sch)
        (comment (number 1) (value ""))
        (comment (number 2) (value ""))
        (comment (number 3) (value ""))
        (comment (number 4) (value "")))))
  (components
    (comp (ref U5)
      (value ATMEGA328P-A)
      (footprint Housings_QFP:TQFP-32_7x7mm_Pitch0.8mm)
      (libsource (lib nmm1-cache) (part ATMEGA328P-A))
      (sheetpath (names /) (tstamps /))
      (tstamp 587FFE62))
    (comp (ref U2)
      (value FT232RL)
      (footprint Housings_SSOP:SSOP-28_5.3x10.2mm_Pitch0.65mm)
      (libsource (lib ftdi) (part FT232RL))
      (sheetpath (names /) (tstamps /))
      (tstamp 588015E2))
    (comp (ref R7)
      (value 1K)
      (footprint Resistors_SMD:R_0805)
      (libsource (lib device) (part R))
      (sheetpath (names /) (tstamps /))
      (tstamp 58801EE8))
    (comp (ref R9)
      (value 10K)
      (footprint Resistors_SMD:R_0805)
      (libsource (lib device) (part R))
      (sheetpath (names /) (tstamps /))
      (tstamp 588021DF))
    (comp (ref P1)
      (value USB_OTG)
      (footprint Connectors:USB_Mini-B)
      (libsource (lib nmm1-rescue) (part USB_OTG-RESCUE-nmm1))
      (sheetpath (names /) (tstamps /))
      (tstamp 58815603))
    (comp (ref C2)
      (value 100nF)
      (footprint Capacitors_SMD:C_0805)
      (libsource (lib device) (part C))
      (sheetpath (names /) (tstamps /))
      (tstamp 58815C2D))
    (comp (ref X1)
      (value 12Mhz)
      (footprint Crystals:Crystal_SMD_HC49-SD)
      (libsource (lib device) (part Crystal))
      (sheetpath (names /) (tstamps /))
      (tstamp 58816282))
    (comp (ref JP2)
      (value Jumper)
      (footprint Connectors:GS2)
      (libsource (lib device) (part Jumper_NO_Small))
      (sheetpath (names /) (tstamps /))
      (tstamp 588171AD))
    (comp (ref JP1)
      (value Jumper3)
      (footprint Connectors:GS3)
      (libsource (lib electropepper_kicad) (part Jumper3))
      (sheetpath (names /) (tstamps /))
      (tstamp 58817926))
    (comp (ref X2)
      (value 8Mhz)
      (footprint Crystals:Crystal_SMD_HC49-SD)
      (libsource (lib device) (part Crystal))
      (sheetpath (names /) (tstamps /))
      (tstamp 588196A3))
    (comp (ref C10)
      (value 22pF)
      (footprint Capacitors_SMD:C_0805)
      (libsource (lib device) (part C))
      (sheetpath (names /) (tstamps /))
      (tstamp 58819B31))
    (comp (ref C11)
      (value 22pF)
      (footprint Capacitors_SMD:C_0805)
      (libsource (lib device) (part C))
      (sheetpath (names /) (tstamps /))
      (tstamp 58819C1C))
    (comp (ref D2)
      (value LED)
      (footprint LEDs:LED_PLCC-2)
      (libsource (lib device) (part LED))
      (sheetpath (names /) (tstamps /))
      (tstamp 5881DC19))
    (comp (ref R8)
      (value 1K)
      (footprint Resistors_SMD:R_0805)
      (libsource (lib device) (part R))
      (sheetpath (names /) (tstamps /))
      (tstamp 5881F228))
    (comp (ref SW5)
      (value SW_Push)
      (footprint "Electropepper parts:B3FS-10")
      (libsource (lib switches) (part SW_Push))
      (sheetpath (names /) (tstamps /))
      (tstamp 58821233))
    (comp (ref P4)
      (value CONN_02X03)
      (footprint Pin_Headers:Pin_Header_Straight_2x03_Pitch2.54mm)
      (libsource (lib conn) (part CONN_02X03))
      (sheetpath (names /) (tstamps /))
      (tstamp 58823534))
    (comp (ref C7)
      (value 100nF)
      (footprint Capacitors_SMD:C_0805)
      (libsource (lib device) (part C))
      (sheetpath (names /) (tstamps /))
      (tstamp 58825549))
    (comp (ref U1)
      (value MCP73831)
      (footprint TO_SOT_Packages_SMD:SOT-23-5)
      (libsource (lib electropepper_kicad) (part MCP73831))
      (sheetpath (names /) (tstamps /))
      (tstamp 5887F26B))
    (comp (ref R1)
      (value 470R)
      (footprint Resistors_SMD:R_0805)
      (libsource (lib device) (part R))
      (sheetpath (names /) (tstamps /))
      (tstamp 58883862))
    (comp (ref C1)
      (value 4.7uF)
      (footprint Capacitors_SMD:C_0805)
      (libsource (lib device) (part C))
      (sheetpath (names /) (tstamps /))
      (tstamp 58885F04))
    (comp (ref C4)
      (value 4.7uF)
      (footprint Capacitors_SMD:C_0805)
      (libsource (lib device) (part C))
      (sheetpath (names /) (tstamps /))
      (tstamp 5888837D))
    (comp (ref R2)
      (value 2K)
      (footprint Resistors_SMD:R_0805)
      (libsource (lib device) (part R))
      (sheetpath (names /) (tstamps /))
      (tstamp 5888A417))
    (comp (ref P3)
      (value Battery)
      (footprint Pin_Headers:Pin_Header_Straight_1x02_Pitch2.54mm)
      (libsource (lib conn) (part CONN_01X02))
      (sheetpath (names /) (tstamps /))
      (tstamp 58896012))
    (comp (ref U3)
      (value TPS62046)
      (footprint Housings_SSOP:MSOP-10-1EP_3x3mm_Pitch0.5mm)
      (libsource (lib electropepper_kicad) (part TPS62046))
      (sheetpath (names /) (tstamps /))
      (tstamp 58897588))
    (comp (ref C6)
      (value 22uF)
      (footprint Capacitors_SMD:C_1206)
      (libsource (lib device) (part C))
      (sheetpath (names /) (tstamps /))
      (tstamp 588996E9))
    (comp (ref C9)
      (value 22uF)
      (footprint Capacitors_SMD:C_1206)
      (libsource (lib device) (part C))
      (sheetpath (names /) (tstamps /))
      (tstamp 5889990B))
    (comp (ref L1)
      (value 6.2uH)
      (footprint "Electropepper parts:SRN6028")
      (libsource (lib device) (part L))
      (sheetpath (names /) (tstamps /))
      (tstamp 5889C7D1))
    (comp (ref D3)
      (value LED)
      (footprint LEDs:LED_PLCC-2)
      (libsource (lib device) (part LED))
      (sheetpath (names /) (tstamps /))
      (tstamp 58912C50))
    (comp (ref D1)
      (value LED)
      (footprint LEDs:LED_PLCC-2)
      (libsource (lib device) (part LED))
      (sheetpath (names /) (tstamps /))
      (tstamp 589137FD))
    (comp (ref C3)
      (value 100nF)
      (footprint Capacitors_SMD:C_0805)
      (libsource (lib device) (part C))
      (sheetpath (names /) (tstamps /))
      (tstamp 5891B8EF))
    (comp (ref C8)
      (value 100nF)
      (footprint Capacitors_SMD:C_0805)
      (libsource (lib device) (part C))
      (sheetpath (names /) (tstamps /))
      (tstamp 5891C141))
    (comp (ref C5)
      (value 100nF)
      (footprint Capacitors_SMD:C_0805)
      (libsource (lib device) (part C))
      (sheetpath (names /) (tstamps /))
      (tstamp 5891E9F8))
    (comp (ref R3)
      (value 10K)
      (footprint Resistors_SMD:R_0805)
      (libsource (lib device) (part R))
      (sheetpath (names /) (tstamps /))
      (tstamp 5894FF99))
    (comp (ref R4)
      (value 10K)
      (footprint Resistors_SMD:R_0805)
      (libsource (lib device) (part R))
      (sheetpath (names /) (tstamps /))
      (tstamp 5895063D))
    (comp (ref R5)
      (value 10K)
      (footprint Resistors_SMD:R_0805)
      (libsource (lib device) (part R))
      (sheetpath (names /) (tstamps /))
      (tstamp 58950803))
    (comp (ref P6)
      (value Display)
      (footprint "Electropepper parts:OLED-ARDUINO-IIC-ALI")
      (libsource (lib conn) (part CONN_01X05))
      (sheetpath (names /) (tstamps /))
      (tstamp 58AC71D2))
    (comp (ref R13)
      (value 330K)
      (footprint Resistors_SMD:R_0805)
      (libsource (lib device) (part R))
      (sheetpath (names /) (tstamps /))
      (tstamp 58AE025B))
    (comp (ref R10)
      (value 36K)
      (footprint Resistors_SMD:R_0805)
      (libsource (lib device) (part R))
      (sheetpath (names /) (tstamps /))
      (tstamp 58AE3757))
    (comp (ref R11)
      (value 330R)
      (footprint Resistors_SMD:R_0805)
      (libsource (lib device) (part R))
      (sheetpath (names /) (tstamps /))
      (tstamp 58AE393C))
    (comp (ref R12)
      (value 330R)
      (footprint Resistors_SMD:R_0805)
      (libsource (lib device) (part R))
      (sheetpath (names /) (tstamps /))
      (tstamp 58AE3E88))
    (comp (ref P2)
      (value RS422)
      (footprint Connectors_Phoenix:PhoenixContact_MC-G_04x3.81mm_Angled)
      (libsource (lib conn) (part CONN_01X04))
      (sheetpath (names /) (tstamps /))
      (tstamp 58AC3DF0))
    (comp (ref R6)
      (value 10K)
      (footprint Resistors_SMD:R_0805)
      (libsource (lib device) (part R))
      (sheetpath (names /) (tstamps /))
      (tstamp 58AD148C))
    (comp (ref R14)
      (value 330R)
      (footprint Resistors_SMD:R_0805)
      (libsource (lib device) (part R))
      (sheetpath (names /) (tstamps /))
      (tstamp 58ACCCE1))
    (comp (ref R15)
      (value 330R)
      (footprint Resistors_SMD:R_0805)
      (libsource (lib device) (part R))
      (sheetpath (names /) (tstamps /))
      (tstamp 58ACD105))
    (comp (ref U6)
      (value VOS627A)
      (footprint Housings_SSOP:SOP-4_4.4x2.8mm_Pitch1.27mm)
      (libsource (lib electropepper_kicad) (part VOS627A))
      (sheetpath (names /) (tstamps /))
      (tstamp 58B4533F))
    (comp (ref R18)
      (value 1K)
      (footprint Resistors_SMD:R_0805)
      (libsource (lib device) (part R))
      (sheetpath (names /) (tstamps /))
      (tstamp 58B47C35))
    (comp (ref R17)
      (value 1K)
      (footprint Resistors_SMD:R_0805)
      (libsource (lib device) (part R))
      (sheetpath (names /) (tstamps /))
      (tstamp 58B4BD0A))
    (comp (ref U4)
      (value MAX3295)
      (footprint TO_SOT_Packages_SMD:SOT-23-6)
      (libsource (lib electropepper_kicad) (part MAX3295))
      (sheetpath (names /) (tstamps /))
      (tstamp 58B4FEA4))
    (comp (ref R16)
      (value 1K)
      (footprint Resistors_SMD:R_0805)
      (libsource (lib device) (part R))
      (sheetpath (names /) (tstamps /))
      (tstamp 58B57DAA))
    (comp (ref SW1)
      (value SW_Push)
      (footprint "Electropepper parts:B3FS-10")
      (libsource (lib switches) (part SW_Push))
      (sheetpath (names /) (tstamps /))
      (tstamp 58CBF91A))
    (comp (ref SW2)
      (value SW_Push)
      (footprint "Electropepper parts:B3FS-10")
      (libsource (lib switches) (part SW_Push))
      (sheetpath (names /) (tstamps /))
      (tstamp 58CC7607))
    (comp (ref SW3)
      (value SW_Push)
      (footprint "Electropepper parts:B3FS-10")
      (libsource (lib switches) (part SW_Push))
      (sheetpath (names /) (tstamps /))
      (tstamp 58CC76F8))
    (comp (ref SW4)
      (value SW_Push)
      (footprint "Electropepper parts:B3FS-10")
      (libsource (lib switches) (part SW_Push))
      (sheetpath (names /) (tstamps /))
      (tstamp 58CC7DC4)))
  (libparts
    (libpart (lib nmm1-cache) (part ATMEGA168A-A)
      (aliases
        (alias ATMEGA48A-A)
        (alias ATMEGA48PA-A)
        (alias ATMEGA88A-A)
        (alias ATMEGA88PA-A)
        (alias ATMEGA168PA-A)
        (alias ATMEGA328-A)
        (alias ATMEGA328P-A))
      (fields
        (field (name Reference) IC)
        (field (name Value) ATMEGA168A-A)
        (field (name Footprint) TQFP32))
      (pins
        (pin (num 1) (name "(PCINT19/OC2B/INT1)PD3") (type BiDi))
        (pin (num 2) (name "(PCINT20/XCK/T0)PD4") (type BiDi))
        (pin (num 3) (name GND) (type power_in))
        (pin (num 4) (name VCC) (type power_in))
        (pin (num 5) (name GND) (type power_in))
        (pin (num 6) (name VCC) (type power_in))
        (pin (num 7) (name "(PCINT6/XTAL1/TOSC1)PB6") (type BiDi))
        (pin (num 8) (name "(PCINT7/XTAL2/TOSC2)PB7") (type BiDi))
        (pin (num 9) (name "(PCINT21/OC0B/T1)PD5") (type BiDi))
        (pin (num 10) (name "(PCINT22/OC0A/AIN0)PD6") (type BiDi))
        (pin (num 11) (name "(PCINT23/AIN1)PD7") (type BiDi))
        (pin (num 12) (name "(PCINT0/CLKO/ICP1)PB0") (type BiDi))
        (pin (num 13) (name "(PCINT1/OC1A)PB1") (type BiDi))
        (pin (num 14) (name "(PCINT2/OC1B/~SS~)PB2") (type BiDi))
        (pin (num 15) (name "(PCINT3/OC2A/MOSI)PB3") (type BiDi))
        (pin (num 16) (name "(PCINT4/MISO)PB4") (type BiDi))
        (pin (num 17) (name "(PCINT5/SCK)PB5") (type BiDi))
        (pin (num 18) (name AVCC) (type power_in))
        (pin (num 19) (name ADC6) (type input))
        (pin (num 20) (name AREF) (type BiDi))
        (pin (num 21) (name GND) (type power_in))
        (pin (num 22) (name ADC7) (type input))
        (pin (num 23) (name "(PCINT8/ADC0)PC0") (type BiDi))
        (pin (num 24) (name "(PCINT9/ADC1)PC1") (type BiDi))
        (pin (num 25) (name "(PCINT10/ADC2)PC2") (type BiDi))
        (pin (num 26) (name "(PCINT11/ADC3)PC3") (type BiDi))
        (pin (num 27) (name "(PCINT12/SDA/ADC4)PC4") (type BiDi))
        (pin (num 28) (name "(PCINT13/SCL/ADC5)PC5") (type BiDi))
        (pin (num 29) (name "(PCINT14/~RESET~)PC6") (type BiDi))
        (pin (num 30) (name "(PCINT16/RXD)PD0") (type BiDi))
        (pin (num 31) (name "(PCINT17/TXD)PD1") (type BiDi))
        (pin (num 32) (name "(PCINT18/INT0)PD2") (type BiDi))))
    (libpart (lib device) (part C)
      (description "Unpolarized capacitor")
      (footprints
        (fp C_*))
      (fields
        (field (name Reference) C)
        (field (name Value) C))
      (pins
        (pin (num 1) (name ~) (type passive))
        (pin (num 2) (name ~) (type passive))))
    (libpart (lib conn) (part CONN_01X02)
      (description "Connector, single row, 01x02, pin header")
      (footprints
        (fp Pin_Header_Straight_1X*)
        (fp Pin_Header_Angled_1X*)
        (fp Socket_Strip_Straight_1X*)
        (fp Socket_Strip_Angled_1X*))
      (fields
        (field (name Reference) J)
        (field (name Value) CONN_01X02))
      (pins
        (pin (num 1) (name P1) (type passive))
        (pin (num 2) (name P2) (type passive))))
    (libpart (lib conn) (part CONN_01X04)
      (description "Connector, single row, 01x04, pin header")
      (footprints
        (fp Pin_Header_Straight_1X*)
        (fp Pin_Header_Angled_1X*)
        (fp Socket_Strip_Straight_1X*)
        (fp Socket_Strip_Angled_1X*))
      (fields
        (field (name Reference) J)
        (field (name Value) CONN_01X04))
      (pins
        (pin (num 1) (name P1) (type passive))
        (pin (num 2) (name P2) (type passive))
        (pin (num 3) (name P3) (type passive))
        (pin (num 4) (name P4) (type passive))))
    (libpart (lib conn) (part CONN_01X05)
      (description "Connector, single row, 01x05, pin header")
      (footprints
        (fp Pin_Header_Straight_1X*)
        (fp Pin_Header_Angled_1X*)
        (fp Socket_Strip_Straight_1X*)
        (fp Socket_Strip_Angled_1X*))
      (fields
        (field (name Reference) J)
        (field (name Value) CONN_01X05))
      (pins
        (pin (num 1) (name P1) (type passive))
        (pin (num 2) (name P2) (type passive))
        (pin (num 3) (name P3) (type passive))
        (pin (num 4) (name P4) (type passive))
        (pin (num 5) (name P5) (type passive))))
    (libpart (lib conn) (part CONN_02X03)
      (description "Connector, double row, 02x03, pin header")
      (footprints
        (fp Pin_Header_Straight_2X*)
        (fp Pin_Header_Angled_2X*)
        (fp Socket_Strip_Straight_2X*)
        (fp Socket_Strip_Angled_2X*)
        (fp IDC_Header_Straight_*))
      (fields
        (field (name Reference) J)
        (field (name Value) CONN_02X03))
      (pins
        (pin (num 1) (name P1) (type passive))
        (pin (num 2) (name P2) (type passive))
        (pin (num 3) (name P3) (type passive))
        (pin (num 4) (name P4) (type passive))
        (pin (num 5) (name P5) (type passive))
        (pin (num 6) (name P6) (type passive))))
    (libpart (lib device) (part Crystal)
      (description "Two pin crystal")
      (footprints
        (fp Crystal*))
      (fields
        (field (name Reference) Y)
        (field (name Value) Crystal))
      (pins
        (pin (num 1) (name 1) (type passive))
        (pin (num 2) (name 2) (type passive))))
    (libpart (lib ftdi) (part FT232RL)
      (description "USB to Serial Interface, SSOP-28")
      (docs http://www.ftdichip.com/Products/ICs/FT232RL.htm)
      (footprints
        (fp SSOP*))
      (fields
        (field (name Reference) U)
        (field (name Value) FT232RL)
        (field (name Footprint) SSOP-28))
      (pins
        (pin (num 1) (name TXD) (type output))
        (pin (num 2) (name DTR) (type output))
        (pin (num 3) (name RTS) (type output))
        (pin (num 4) (name VCCIO) (type input))
        (pin (num 5) (name RXD) (type input))
        (pin (num 6) (name RI) (type input))
        (pin (num 7) (name GND) (type power_in))
        (pin (num 9) (name DCR) (type input))
        (pin (num 10) (name DCD) (type input))
        (pin (num 11) (name CTS) (type input))
        (pin (num 12) (name CBUS4) (type BiDi))
        (pin (num 13) (name CBUS2) (type BiDi))
        (pin (num 14) (name CBUS3) (type BiDi))
        (pin (num 15) (name USBD+) (type BiDi))
        (pin (num 16) (name USBD-) (type BiDi))
        (pin (num 17) (name 3V3OUT) (type input))
        (pin (num 18) (name GND) (type power_in))
        (pin (num 19) (name ~RESET~) (type input))
        (pin (num 20) (name VCC) (type power_in))
        (pin (num 21) (name GND) (type power_in))
        (pin (num 22) (name CBUS1) (type output))
        (pin (num 23) (name CBUS0) (type BiDi))
        (pin (num 25) (name AGND) (type power_in))
        (pin (num 26) (name TEST) (type power_in))
        (pin (num 27) (name OSCI) (type input))
        (pin (num 28) (name OSCO) (type output))))
    (libpart (lib electropepper_kicad) (part Jumper3)
      (fields
        (field (name Reference) JP)
        (field (name Value) Jumper3))
      (pins
        (pin (num 1) (name ~) (type BiDi))
        (pin (num 2) (name ~) (type BiDi))
        (pin (num 3) (name ~) (type BiDi))))
    (libpart (lib device) (part Jumper_NO_Small)
      (description "Jumper, normally open")
      (fields
        (field (name Reference) JP)
        (field (name Value) Jumper_NO_Small))
      (pins
        (pin (num 1) (name 1) (type passive))
        (pin (num 2) (name 2) (type passive))))
    (libpart (lib device) (part L)
      (description Inductor)
      (footprints
        (fp Choke_*)
        (fp *Coil*)
        (fp Inductor_*)
        (fp L_*))
      (fields
        (field (name Reference) L)
        (field (name Value) L))
      (pins
        (pin (num 1) (name 1) (type passive))
        (pin (num 2) (name 2) (type passive))))
    (libpart (lib device) (part LED)
      (description "LED generic")
      (footprints
        (fp LED*))
      (fields
        (field (name Reference) D)
        (field (name Value) LED))
      (pins
        (pin (num 1) (name K) (type passive))
        (pin (num 2) (name A) (type passive))))
    (libpart (lib electropepper_kicad) (part MAX3295)
      (fields
        (field (name Reference) U)
        (field (name Value) MAX3295))
      (pins
        (pin (num 1) (name DI) (type input))
        (pin (num 2) (name VCC) (type power_in))
        (pin (num 3) (name DE) (type BiDi))
        (pin (num 4) (name Z) (type BiDi))
        (pin (num 5) (name GND) (type BiDi))
        (pin (num 6) (name Y) (type BiDi))))
    (libpart (lib electropepper_kicad) (part MCP73831)
      (fields
        (field (name Reference) U)
        (field (name Value) MCP73831))
      (pins
        (pin (num 1) (name STAT) (type output))
        (pin (num 2) (name Vss) (type power_in))
        (pin (num 3) (name Vbat) (type power_out))
        (pin (num 4) (name VDD) (type power_in))
        (pin (num 5) (name PROG) (type input))))
    (libpart (lib device) (part R)
      (description Resistor)
      (footprints
        (fp R_*)
        (fp R_*))
      (fields
        (field (name Reference) R)
        (field (name Value) R))
      (pins
        (pin (num 1) (name ~) (type passive))
        (pin (num 2) (name ~) (type passive))))
    (libpart (lib switches) (part SW_Push)
      (description "Push button switch, generic, two pins")
      (fields
        (field (name Reference) SW)
        (field (name Value) SW_Push))
      (pins
        (pin (num 1) (name 1) (type passive))
        (pin (num 2) (name 2) (type passive))))
    (libpart (lib electropepper_kicad) (part TPS62046)
      (fields
        (field (name Reference) U)
        (field (name Value) TPS62046))
      (pins
        (pin (num 1) (name EN) (type input))
        (pin (num 2) (name VIN) (type power_in))
        (pin (num 3) (name VIN) (type power_in))
        (pin (num 4) (name GND) (type power_in))
        (pin (num 5) (name FB) (type input))
        (pin (num 6) (name MODE) (type input))
        (pin (num 7) (name SW) (type BiDi))
        (pin (num 8) (name SW) (type BiDi))
        (pin (num 9) (name PGND) (type power_in))
        (pin (num 10) (name PGND) (type power_in))
        (pin (num 11) (name PGND) (type input))))
    (libpart (lib nmm1-rescue) (part USB_OTG-RESCUE-nmm1)
      (footprints
        (fp USB*))
      (fields
        (field (name Reference) P)
        (field (name Value) USB_OTG-RESCUE-nmm1))
      (pins
        (pin (num 1) (name VBUS) (type power_out))
        (pin (num 2) (name D-) (type passive))
        (pin (num 3) (name D+) (type passive))
        (pin (num 4) (name ID) (type power_in))
        (pin (num 5) (name GND) (type power_in))
        (pin (num 6) (name shield) (type passive))))
    (libpart (lib electropepper_kicad) (part VOS627A)
      (fields
        (field (name Reference) U)
        (field (name Value) VOS627A))
      (pins
        (pin (num 1) (name A/C) (type BiDi))
        (pin (num 2) (name C/A) (type BiDi))
        (pin (num 3) (name E) (type BiDi))
        (pin (num 4) (name C) (type BiDi)))))
  (libraries
    (library (logical ftdi)
      (uri /usr/share/kicad/library/ftdi.lib))
    (library (logical switches)
      (uri /usr/share/kicad/library/switches.lib))
    (library (logical electropepper_kicad)
      (uri /home/ricardo/Projects/Kicad/libs/electropepper_kicad.lib))
    (library (logical nmm1-rescue)
      (uri /home/ricardo/Projects/NMM-1/NMM1_Kicad/nmm1-rescue.lib))
    (library (logical nmm1-cache)
      (uri /home/ricardo/Projects/NMM-1/NMM1_Kicad/nmm1-cache.lib))
    (library (logical device)
      (uri /usr/share/kicad/library/device.lib))
    (library (logical conn)
      (uri /usr/share/kicad/library/conn.lib)))
  (nets
    (net (code 1) (name "Net-(L1-Pad1)")
      (node (ref U3) (pin 7))
      (node (ref U3) (pin 8))
      (node (ref L1) (pin 1)))
    (net (code 2) (name "Net-(R2-Pad2)")
      (node (ref R2) (pin 2))
      (node (ref U1) (pin 5)))
    (net (code 3) (name "Net-(R13-Pad2)")
      (node (ref U5) (pin 26))
      (node (ref R13) (pin 2)))
    (net (code 4) (name /VBatt)
      (node (ref R13) (pin 1))
      (node (ref U3) (pin 1))
      (node (ref P3) (pin 1))
      (node (ref U3) (pin 3))
      (node (ref R10) (pin 1))
      (node (ref U3) (pin 2))
      (node (ref U1) (pin 3))
      (node (ref C6) (pin 1))
      (node (ref C4) (pin 1)))
    (net (code 5) (name "Net-(R10-Pad2)")
      (node (ref R11) (pin 1))
      (node (ref R10) (pin 2)))
    (net (code 6) (name "Net-(C8-Pad1)")
      (node (ref U5) (pin 20))
      (node (ref C8) (pin 1)))
    (net (code 7) (name "Net-(R7-Pad2)")
      (node (ref U5) (pin 31))
      (node (ref R7) (pin 2)))
    (net (code 8) (name "Net-(R8-Pad2)")
      (node (ref U5) (pin 30))
      (node (ref R8) (pin 2)))
    (net (code 9) (name "Net-(R7-Pad1)")
      (node (ref U2) (pin 5))
      (node (ref R7) (pin 1)))
    (net (code 10) (name "Net-(C11-Pad2)")
      (node (ref X2) (pin 2))
      (node (ref U5) (pin 8))
      (node (ref C11) (pin 2)))
    (net (code 11) (name "Net-(C10-Pad2)")
      (node (ref C10) (pin 2))
      (node (ref U5) (pin 7))
      (node (ref X2) (pin 1)))
    (net (code 12) (name "Net-(P4-Pad2)")
      (node (ref P4) (pin 2))
      (node (ref U5) (pin 17)))
    (net (code 13) (name "Net-(R1-Pad1)")
      (node (ref R1) (pin 1))
      (node (ref U1) (pin 1)))
    (net (code 14) (name "Net-(D1-Pad1)")
      (node (ref R1) (pin 2))
      (node (ref D1) (pin 1)))
    (net (code 15) (name "Net-(C1-Pad1)")
      (node (ref P1) (pin 1))
      (node (ref C1) (pin 1))
      (node (ref D1) (pin 2))
      (node (ref JP1) (pin 3))
      (node (ref U1) (pin 4)))
    (net (code 16) (name "Net-(R11-Pad2)")
      (node (ref R12) (pin 1))
      (node (ref R11) (pin 2)))
    (net (code 17) (name "Net-(P4-Pad4)")
      (node (ref U5) (pin 16))
      (node (ref P4) (pin 4)))
    (net (code 18) (name "Net-(P4-Pad6)")
      (node (ref P4) (pin 6))
      (node (ref U5) (pin 15)))
    (net (code 19) (name "Net-(C5-Pad2)")
      (node (ref C5) (pin 2))
      (node (ref U2) (pin 2)))
    (net (code 20) (name "Net-(R8-Pad1)")
      (node (ref R8) (pin 1))
      (node (ref U2) (pin 1)))
    (net (code 21) (name "Net-(R16-Pad2)")
      (node (ref U4) (pin 3))
      (node (ref R16) (pin 2)))
    (net (code 22) (name +3V3)
      (node (ref U5) (pin 4))
      (node (ref U5) (pin 18))
      (node (ref R17) (pin 1))
      (node (ref R4) (pin 2))
      (node (ref R3) (pin 2))
      (node (ref C7) (pin 2))
      (node (ref L1) (pin 2))
      (node (ref U5) (pin 6))
      (node (ref R9) (pin 2))
      (node (ref R6) (pin 2))
      (node (ref P4) (pin 1))
      (node (ref P6) (pin 2))
      (node (ref R5) (pin 2))
      (node (ref C9) (pin 1))
      (node (ref R16) (pin 1))
      (node (ref JP1) (pin 1))
      (node (ref U3) (pin 5))
      (node (ref R15) (pin 2))
      (node (ref R14) (pin 2))
      (node (ref U4) (pin 2)))
    (net (code 23) (name "Net-(U5-Pad24)")
      (node (ref U5) (pin 24)))
    (net (code 24) (name "Net-(U5-Pad23)")
      (node (ref U5) (pin 23)))
    (net (code 25) (name "Net-(P2-Pad4)")
      (node (ref U4) (pin 6))
      (node (ref P2) (pin 4)))
    (net (code 26) (name "Net-(P2-Pad3)")
      (node (ref U4) (pin 4))
      (node (ref P2) (pin 3)))
    (net (code 27) (name GND)
      (node (ref C4) (pin 2))
      (node (ref R2) (pin 1))
      (node (ref U3) (pin 9))
      (node (ref U3) (pin 6))
      (node (ref U3) (pin 4))
      (node (ref U1) (pin 2))
      (node (ref P3) (pin 2))
      (node (ref U3) (pin 10))
      (node (ref U3) (pin 11))
      (node (ref C6) (pin 2))
      (node (ref C9) (pin 2))
      (node (ref P4) (pin 5))
      (node (ref C7) (pin 1))
      (node (ref C1) (pin 2))
      (node (ref SW5) (pin 1))
      (node (ref C3) (pin 2))
      (node (ref C8) (pin 2))
      (node (ref U2) (pin 21))
      (node (ref U2) (pin 7))
      (node (ref P6) (pin 1))
      (node (ref P6) (pin 5))
      (node (ref U5) (pin 3))
      (node (ref U5) (pin 5))
      (node (ref U5) (pin 21))
      (node (ref U2) (pin 25))
      (node (ref U2) (pin 26))
      (node (ref U2) (pin 18))
      (node (ref SW4) (pin 1))
      (node (ref SW3) (pin 1))
      (node (ref U4) (pin 5))
      (node (ref SW1) (pin 1))
      (node (ref R12) (pin 2))
      (node (ref U6) (pin 3))
      (node (ref SW2) (pin 1))
      (node (ref P1) (pin 5))
      (node (ref P1) (pin 6))
      (node (ref C2) (pin 2))
      (node (ref C10) (pin 1))
      (node (ref C11) (pin 1)))
    (net (code 28) (name "Net-(P6-Pad4)")
      (node (ref P6) (pin 4))
      (node (ref U5) (pin 27)))
    (net (code 29) (name "Net-(P6-Pad3)")
      (node (ref P6) (pin 3))
      (node (ref U5) (pin 28)))
    (net (code 30) (name "Net-(U5-Pad14)")
      (node (ref U5) (pin 14)))
    (net (code 31) (name "Net-(U5-Pad13)")
      (node (ref U5) (pin 13)))
    (net (code 32) (name /BTN_1)
      (node (ref SW1) (pin 2))
      (node (ref R3) (pin 1))
      (node (ref U5) (pin 32)))
    (net (code 33) (name /BTN_2)
      (node (ref U5) (pin 1))
      (node (ref SW2) (pin 2))
      (node (ref R4) (pin 1)))
    (net (code 34) (name /BTN_3)
      (node (ref R5) (pin 1))
      (node (ref SW3) (pin 2))
      (node (ref U5) (pin 2)))
    (net (code 35) (name /BTN_4)
      (node (ref SW4) (pin 2))
      (node (ref R6) (pin 1))
      (node (ref U5) (pin 9)))
    (net (code 36) (name "Net-(U5-Pad25)")
      (node (ref U5) (pin 25)))
    (net (code 37) (name "Net-(R17-Pad2)")
      (node (ref U5) (pin 10))
      (node (ref U6) (pin 4))
      (node (ref R17) (pin 2)))
    (net (code 38) (name "Net-(U4-Pad1)")
      (node (ref U4) (pin 1))
      (node (ref U5) (pin 11)))
    (net (code 39) (name "Net-(D2-Pad1)")
      (node (ref D2) (pin 1))
      (node (ref U5) (pin 22)))
    (net (code 40) (name "Net-(R18-Pad1)")
      (node (ref R18) (pin 1))
      (node (ref U6) (pin 1)))
    (net (code 41) (name "Net-(P2-Pad2)")
      (node (ref U6) (pin 2))
      (node (ref P2) (pin 2)))
    (net (code 42) (name "Net-(P2-Pad1)")
      (node (ref R18) (pin 2))
      (node (ref P2) (pin 1)))
    (net (code 43) (name "Net-(D3-Pad1)")
      (node (ref U5) (pin 19))
      (node (ref D3) (pin 1)))
    (net (code 44) (name "Net-(D2-Pad2)")
      (node (ref D2) (pin 2))
      (node (ref R15) (pin 1)))
    (net (code 45) (name "Net-(D3-Pad2)")
      (node (ref D3) (pin 2))
      (node (ref R14) (pin 1)))
    (net (code 46) (name "Net-(U2-Pad23)")
      (node (ref U2) (pin 23)))
    (net (code 47) (name "Net-(U2-Pad22)")
      (node (ref U2) (pin 22)))
    (net (code 48) (name "Net-(U5-Pad12)")
      (node (ref U5) (pin 12)))
    (net (code 49) (name "Net-(JP1-Pad2)")
      (node (ref U2) (pin 20))
      (node (ref JP2) (pin 1))
      (node (ref JP1) (pin 2)))
    (net (code 50) (name /RESET)
      (node (ref SW5) (pin 2))
      (node (ref R9) (pin 1))
      (node (ref C5) (pin 1))
      (node (ref U5) (pin 29))
      (node (ref P4) (pin 3)))
    (net (code 51) (name "Net-(P1-Pad4)")
      (node (ref P1) (pin 4)))
    (net (code 52) (name "Net-(C2-Pad1)")
      (node (ref C2) (pin 1))
      (node (ref U2) (pin 17)))
    (net (code 53) (name "Net-(U2-Pad9)")
      (node (ref U2) (pin 9)))
    (net (code 54) (name "Net-(U2-Pad10)")
      (node (ref U2) (pin 10)))
    (net (code 55) (name "Net-(U2-Pad6)")
      (node (ref U2) (pin 6)))
    (net (code 56) (name "Net-(U2-Pad11)")
      (node (ref U2) (pin 11)))
    (net (code 57) (name "Net-(U2-Pad3)")
      (node (ref U2) (pin 3)))
    (net (code 58) (name "Net-(U2-Pad13)")
      (node (ref U2) (pin 13)))
    (net (code 59) (name "Net-(U2-Pad14)")
      (node (ref U2) (pin 14)))
    (net (code 60) (name "Net-(U2-Pad12)")
      (node (ref U2) (pin 12)))
    (net (code 61) (name "Net-(P1-Pad3)")
      (node (ref P1) (pin 3))
      (node (ref U2) (pin 15)))
    (net (code 62) (name "Net-(P1-Pad2)")
      (node (ref P1) (pin 2))
      (node (ref U2) (pin 16)))
    (net (code 63) (name "Net-(U2-Pad27)")
      (node (ref U2) (pin 27))
      (node (ref X1) (pin 1)))
    (net (code 64) (name "Net-(U2-Pad28)")
      (node (ref X1) (pin 2))
      (node (ref U2) (pin 28)))
    (net (code 65) (name "Net-(JP2-Pad2)")
      (node (ref JP2) (pin 2))
      (node (ref U2) (pin 4)))
    (net (code 66) (name "Net-(C3-Pad1)")
      (node (ref C3) (pin 1))
      (node (ref U2) (pin 19)))))