M48
;DRILL file {KiCad 4.0.5} date 03/28/17 16:54:06
;FORMAT={-:-/ absolute / metric / decimal}
FMAT,2
METRIC,TZ
T1C0.300
T2C0.500
T3C1.000
T4C1.200
T5C3.000
T6C0.900
T7C3.200
%
G90
G05
M71
T1
X125.75Y-68.5
X126.Y-94.
X127.5Y-102.75
X127.8Y-115.5
X128.75Y-59.
X129.75Y-61.25
X129.75Y-96.
X130.Y-70.25
X130.5Y-68.75
X130.5Y-101.
X131.25Y-57.25
X131.25Y-59.25
X131.5Y-63.
X131.5Y-82.5
X131.5Y-93.25
X131.5Y-97.
X132.5Y-54.25
X132.5Y-114.75
X133.Y-79.25
X133.Y-87.25
X133.25Y-69.75
X133.25Y-115.5
X133.25Y-118.25
X133.75Y-72.5
X134.Y-94.
X134.25Y-69.
X134.5Y-81.25
X134.75Y-71.75
X135.Y-69.75
X135.5Y-66.25
X136.Y-71.25
X136.25Y-59.75
X136.25Y-66.
X136.5Y-56.
X136.5Y-57.
X136.75Y-115.
X137.Y-77.75
X137.Y-101.25
X137.75Y-64.5
X138.Y-73.5
X138.Y-80.25
X139.25Y-65.25
X139.25Y-66.25
X139.25Y-83.5
X139.25Y-94.5
X139.25Y-96.75
X139.5Y-79.
X141.Y-87.25
X141.25Y-83.5
X142.75Y-106.75
X142.75Y-117.
X143.Y-94.25
X143.Y-102.75
X144.25Y-74.5
X144.25Y-115.25
X144.25Y-119.
X144.75Y-96.
X145.25Y-87.25
X145.5Y-71.75
X145.75Y-73.5
X146.5Y-89.5
X147.25Y-93.75
X147.5Y-69.75
X147.5Y-73.75
X149.Y-93.75
X149.Y-101.
X150.25Y-72.25
X151.25Y-83.75
X152.Y-79.25
X152.5Y-98.25
X152.5Y-103.
T2
X126.Y-83.75
X131.5Y-100.
X133.5Y-99.5
X134.5Y-53.75
X138.5Y-114.
X139.Y-115.
X140.25Y-112.25
X141.25Y-99.5
X144.75Y-100.
X146.25Y-109.25
X149.5Y-84.25
X153.5Y-77.
T3
X132.71Y-107.5
X135.25Y-107.5
X135.44Y-62.85
X137.98Y-62.85
X140.52Y-62.85
X140.71Y-66.17
X140.71Y-68.71
X140.71Y-71.25
X143.06Y-62.85
X143.25Y-66.17
X143.25Y-68.71
X143.25Y-71.25
T4
X138.57Y-59.
X142.38Y-59.
X146.19Y-59.
X150.Y-59.
T5
X127.65Y-63.4
X127.65Y-87.15
X150.9Y-63.4
X150.9Y-87.15
T6
X130.05Y-115.3
X134.45Y-115.3
T7
X128.5Y-54.25
X141.75Y-76.5
X148.5Y-116.5
T0
M30
