G04 #@! TF.FileFunction,Legend,Bot*
%FSLAX46Y46*%
G04 Gerber Fmt 4.6, Leading zero omitted, Abs format (unit mm)*
G04 Created by KiCad (PCBNEW 4.0.5) date 03/28/17 16:53:09*
%MOMM*%
%LPD*%
G01*
G04 APERTURE LIST*
%ADD10C,0.100000*%
%ADD11C,0.300000*%
%ADD12C,0.120000*%
%ADD13C,0.150000*%
%ADD14C,0.010000*%
G04 APERTURE END LIST*
D10*
D11*
X142571428Y-93178571D02*
X143071428Y-92464286D01*
X143428571Y-93178571D02*
X143428571Y-91678571D01*
X142857143Y-91678571D01*
X142714285Y-91750000D01*
X142642857Y-91821429D01*
X142571428Y-91964286D01*
X142571428Y-92178571D01*
X142642857Y-92321429D01*
X142714285Y-92392857D01*
X142857143Y-92464286D01*
X143428571Y-92464286D01*
X141357143Y-93107143D02*
X141500000Y-93178571D01*
X141785714Y-93178571D01*
X141928571Y-93107143D01*
X142000000Y-92964286D01*
X142000000Y-92392857D01*
X141928571Y-92250000D01*
X141785714Y-92178571D01*
X141500000Y-92178571D01*
X141357143Y-92250000D01*
X141285714Y-92392857D01*
X141285714Y-92535714D01*
X142000000Y-92678571D01*
X140785714Y-92178571D02*
X140428571Y-93178571D01*
X140071429Y-92178571D01*
X139500000Y-93035714D02*
X139428572Y-93107143D01*
X139500000Y-93178571D01*
X139571429Y-93107143D01*
X139500000Y-93035714D01*
X139500000Y-93178571D01*
X137714286Y-92750000D02*
X137000000Y-92750000D01*
X137857143Y-93178571D02*
X137357143Y-91678571D01*
X136857143Y-93178571D01*
X149392857Y-103178571D02*
X149107143Y-103178571D01*
X148964285Y-103250000D01*
X148821428Y-103392857D01*
X148750000Y-103678571D01*
X148750000Y-104178571D01*
X148821428Y-104464286D01*
X148964285Y-104607143D01*
X149107143Y-104678571D01*
X149392857Y-104678571D01*
X149535714Y-104607143D01*
X149678571Y-104464286D01*
X149750000Y-104178571D01*
X149750000Y-103678571D01*
X149678571Y-103392857D01*
X149535714Y-103250000D01*
X149392857Y-103178571D01*
X148107142Y-103678571D02*
X148107142Y-105178571D01*
X148107142Y-103750000D02*
X147964285Y-103678571D01*
X147678571Y-103678571D01*
X147535714Y-103750000D01*
X147464285Y-103821429D01*
X147392856Y-103964286D01*
X147392856Y-104392857D01*
X147464285Y-104535714D01*
X147535714Y-104607143D01*
X147678571Y-104678571D01*
X147964285Y-104678571D01*
X148107142Y-104607143D01*
X146178571Y-104607143D02*
X146321428Y-104678571D01*
X146607142Y-104678571D01*
X146749999Y-104607143D01*
X146821428Y-104464286D01*
X146821428Y-103892857D01*
X146749999Y-103750000D01*
X146607142Y-103678571D01*
X146321428Y-103678571D01*
X146178571Y-103750000D01*
X146107142Y-103892857D01*
X146107142Y-104035714D01*
X146821428Y-104178571D01*
X145464285Y-103678571D02*
X145464285Y-104678571D01*
X145464285Y-103821429D02*
X145392857Y-103750000D01*
X145249999Y-103678571D01*
X145035714Y-103678571D01*
X144892857Y-103750000D01*
X144821428Y-103892857D01*
X144821428Y-104678571D01*
X142964285Y-104678571D02*
X142964285Y-103178571D01*
X142964285Y-103892857D02*
X142107142Y-103892857D01*
X142107142Y-104678571D02*
X142107142Y-103178571D01*
X140749999Y-104678571D02*
X140749999Y-103892857D01*
X140821428Y-103750000D01*
X140964285Y-103678571D01*
X141249999Y-103678571D01*
X141392856Y-103750000D01*
X140749999Y-104607143D02*
X140892856Y-104678571D01*
X141249999Y-104678571D01*
X141392856Y-104607143D01*
X141464285Y-104464286D01*
X141464285Y-104321429D01*
X141392856Y-104178571D01*
X141249999Y-104107143D01*
X140892856Y-104107143D01*
X140749999Y-104035714D01*
X140035713Y-104678571D02*
X140035713Y-103678571D01*
X140035713Y-103964286D02*
X139964285Y-103821429D01*
X139892856Y-103750000D01*
X139749999Y-103678571D01*
X139607142Y-103678571D01*
X138464285Y-104678571D02*
X138464285Y-103178571D01*
X138464285Y-104607143D02*
X138607142Y-104678571D01*
X138892856Y-104678571D01*
X139035714Y-104607143D01*
X139107142Y-104535714D01*
X139178571Y-104392857D01*
X139178571Y-103964286D01*
X139107142Y-103821429D01*
X139035714Y-103750000D01*
X138892856Y-103678571D01*
X138607142Y-103678571D01*
X138464285Y-103750000D01*
X137892856Y-103678571D02*
X137607142Y-104678571D01*
X137321428Y-103964286D01*
X137035713Y-104678571D01*
X136749999Y-103678571D01*
X135535713Y-104678571D02*
X135535713Y-103892857D01*
X135607142Y-103750000D01*
X135749999Y-103678571D01*
X136035713Y-103678571D01*
X136178570Y-103750000D01*
X135535713Y-104607143D02*
X135678570Y-104678571D01*
X136035713Y-104678571D01*
X136178570Y-104607143D01*
X136249999Y-104464286D01*
X136249999Y-104321429D01*
X136178570Y-104178571D01*
X136035713Y-104107143D01*
X135678570Y-104107143D01*
X135535713Y-104035714D01*
X134821427Y-104678571D02*
X134821427Y-103678571D01*
X134821427Y-103964286D02*
X134749999Y-103821429D01*
X134678570Y-103750000D01*
X134535713Y-103678571D01*
X134392856Y-103678571D01*
X133321428Y-104607143D02*
X133464285Y-104678571D01*
X133749999Y-104678571D01*
X133892856Y-104607143D01*
X133964285Y-104464286D01*
X133964285Y-103892857D01*
X133892856Y-103750000D01*
X133749999Y-103678571D01*
X133464285Y-103678571D01*
X133321428Y-103750000D01*
X133249999Y-103892857D01*
X133249999Y-104035714D01*
X133964285Y-104178571D01*
X143357143Y-91178571D02*
X143357143Y-89678571D01*
X142500000Y-91178571D01*
X142500000Y-89678571D01*
X141785714Y-91178571D02*
X141785714Y-89678571D01*
X141285714Y-90750000D01*
X140785714Y-89678571D01*
X140785714Y-91178571D01*
X140071428Y-91178571D02*
X140071428Y-89678571D01*
X139571428Y-90750000D01*
X139071428Y-89678571D01*
X139071428Y-91178571D01*
X137571428Y-91178571D02*
X138428571Y-91178571D01*
X137999999Y-91178571D02*
X137999999Y-89678571D01*
X138142856Y-89892857D01*
X138285714Y-90035714D01*
X138428571Y-90107143D01*
D12*
X127900000Y-73500000D02*
X127900000Y-72500000D01*
X129600000Y-72500000D02*
X129600000Y-73500000D01*
X129600000Y-69000000D02*
X129600000Y-70000000D01*
X127900000Y-70000000D02*
X127900000Y-69000000D01*
X149380000Y-76600000D02*
X149380000Y-75400000D01*
X147620000Y-75400000D02*
X147620000Y-76600000D01*
X147150000Y-88050000D02*
X134550000Y-88050000D01*
X134550000Y-88050000D02*
X134550000Y-82950000D01*
X134550000Y-82950000D02*
X147150000Y-82950000D01*
X134800000Y-64850000D02*
X134800000Y-77450000D01*
X134800000Y-77450000D02*
X129700000Y-77450000D01*
X129700000Y-77450000D02*
X129700000Y-64850000D01*
D13*
X145500000Y-74250000D02*
X145500000Y-68250000D01*
X152000000Y-74250000D02*
X152000000Y-68250000D01*
X145500000Y-68250000D02*
X152000000Y-68250000D01*
X145500000Y-74250000D02*
X152000000Y-74250000D01*
D14*
G36*
X143305814Y-110781069D02*
X143389635Y-110336445D01*
X143698920Y-110208947D01*
X144008206Y-110081449D01*
X144379246Y-110333754D01*
X144483157Y-110404004D01*
X144577087Y-110466728D01*
X144656652Y-110519062D01*
X144717470Y-110558143D01*
X144755157Y-110581107D01*
X144765421Y-110586058D01*
X144783910Y-110573324D01*
X144823420Y-110538118D01*
X144879522Y-110484938D01*
X144947787Y-110418282D01*
X145023786Y-110342646D01*
X145103092Y-110262528D01*
X145181275Y-110182426D01*
X145253907Y-110106836D01*
X145316559Y-110040255D01*
X145364803Y-109987182D01*
X145394210Y-109952113D01*
X145401241Y-109940377D01*
X145391123Y-109918740D01*
X145362759Y-109871338D01*
X145319129Y-109802807D01*
X145263218Y-109717785D01*
X145198006Y-109620907D01*
X145160219Y-109565650D01*
X145091343Y-109464752D01*
X145030140Y-109373701D01*
X144979578Y-109297030D01*
X144942628Y-109239272D01*
X144922258Y-109204957D01*
X144919197Y-109197746D01*
X144926136Y-109177252D01*
X144945051Y-109129487D01*
X144973087Y-109061168D01*
X145007391Y-108979011D01*
X145045109Y-108889730D01*
X145083387Y-108800042D01*
X145119370Y-108716662D01*
X145150206Y-108646306D01*
X145173039Y-108595690D01*
X145185017Y-108571529D01*
X145185724Y-108570578D01*
X145204531Y-108565964D01*
X145254618Y-108555672D01*
X145330793Y-108540713D01*
X145427865Y-108522099D01*
X145540643Y-108500841D01*
X145606442Y-108488582D01*
X145726950Y-108465638D01*
X145835797Y-108443805D01*
X145927476Y-108424278D01*
X145996481Y-108408252D01*
X146037304Y-108396921D01*
X146045511Y-108393326D01*
X146053548Y-108368994D01*
X146060033Y-108314041D01*
X146064970Y-108234892D01*
X146068364Y-108137974D01*
X146070218Y-108029713D01*
X146070538Y-107916535D01*
X146069327Y-107804865D01*
X146066590Y-107701132D01*
X146062331Y-107611759D01*
X146056555Y-107543174D01*
X146049267Y-107501803D01*
X146044895Y-107493190D01*
X146018764Y-107482867D01*
X145963393Y-107468108D01*
X145886107Y-107450648D01*
X145794230Y-107432220D01*
X145762158Y-107426259D01*
X145607524Y-107397934D01*
X145485375Y-107375124D01*
X145391673Y-107356920D01*
X145322384Y-107342417D01*
X145273471Y-107330708D01*
X145240897Y-107320885D01*
X145220628Y-107312044D01*
X145208626Y-107303276D01*
X145206947Y-107301543D01*
X145190184Y-107273629D01*
X145164614Y-107219305D01*
X145132788Y-107145223D01*
X145097260Y-107058035D01*
X145060583Y-106964392D01*
X145025311Y-106870948D01*
X144993996Y-106784353D01*
X144969193Y-106711260D01*
X144953454Y-106658322D01*
X144949332Y-106632189D01*
X144949676Y-106631274D01*
X144963641Y-106609914D01*
X144995322Y-106562916D01*
X145041391Y-106495173D01*
X145098518Y-106411577D01*
X145163373Y-106317018D01*
X145181843Y-106290146D01*
X145247699Y-106192725D01*
X145305650Y-106103837D01*
X145352538Y-106028588D01*
X145385207Y-105972080D01*
X145400500Y-105939419D01*
X145401241Y-105935407D01*
X145388392Y-105914316D01*
X145352888Y-105872536D01*
X145299293Y-105814555D01*
X145232171Y-105744865D01*
X145156087Y-105667955D01*
X145075604Y-105588317D01*
X144995287Y-105510439D01*
X144919699Y-105438814D01*
X144853405Y-105377930D01*
X144800969Y-105332279D01*
X144766955Y-105306350D01*
X144757545Y-105302117D01*
X144735643Y-105312088D01*
X144690800Y-105338980D01*
X144630321Y-105378264D01*
X144583789Y-105409883D01*
X144499475Y-105467902D01*
X144399626Y-105536216D01*
X144299473Y-105604421D01*
X144245627Y-105640925D01*
X144063371Y-105764200D01*
X143910381Y-105681480D01*
X143840682Y-105645241D01*
X143781414Y-105617074D01*
X143741311Y-105601009D01*
X143731103Y-105598774D01*
X143718829Y-105615278D01*
X143694613Y-105661918D01*
X143660263Y-105734391D01*
X143617588Y-105828394D01*
X143568394Y-105939626D01*
X143514490Y-106063785D01*
X143457684Y-106196568D01*
X143399782Y-106333673D01*
X143342593Y-106470798D01*
X143287924Y-106603642D01*
X143237584Y-106727902D01*
X143193380Y-106839275D01*
X143157119Y-106933461D01*
X143130609Y-107006156D01*
X143115658Y-107053059D01*
X143113254Y-107069167D01*
X143132311Y-107089714D01*
X143174036Y-107123067D01*
X143229706Y-107162298D01*
X143234378Y-107165401D01*
X143378264Y-107280577D01*
X143494283Y-107414947D01*
X143581430Y-107564216D01*
X143638699Y-107724087D01*
X143665086Y-107890263D01*
X143659585Y-108058448D01*
X143621190Y-108224345D01*
X143548895Y-108383658D01*
X143527626Y-108418513D01*
X143416996Y-108559263D01*
X143286302Y-108672286D01*
X143140064Y-108756997D01*
X142982808Y-108812806D01*
X142819057Y-108839126D01*
X142653333Y-108835370D01*
X142490162Y-108800950D01*
X142334065Y-108735277D01*
X142189567Y-108637765D01*
X142144869Y-108598187D01*
X142031112Y-108474297D01*
X141948218Y-108343876D01*
X141891356Y-108197685D01*
X141859687Y-108052912D01*
X141851869Y-107890140D01*
X141877938Y-107726560D01*
X141935245Y-107567702D01*
X142021144Y-107419094D01*
X142132986Y-107286265D01*
X142268123Y-107174744D01*
X142285883Y-107162989D01*
X142342150Y-107124492D01*
X142384923Y-107091137D01*
X142405372Y-107069840D01*
X142405669Y-107069167D01*
X142401279Y-107046129D01*
X142383876Y-106993843D01*
X142355268Y-106916610D01*
X142317265Y-106818732D01*
X142271674Y-106704509D01*
X142220303Y-106578242D01*
X142164962Y-106444233D01*
X142107458Y-106306782D01*
X142049601Y-106170192D01*
X141993198Y-106038763D01*
X141940058Y-105916795D01*
X141891990Y-105808591D01*
X141850801Y-105718451D01*
X141818301Y-105650677D01*
X141796297Y-105609570D01*
X141787436Y-105598774D01*
X141760360Y-105607181D01*
X141709697Y-105629728D01*
X141644183Y-105662387D01*
X141608159Y-105681480D01*
X141455168Y-105764200D01*
X141272912Y-105640925D01*
X141179875Y-105577772D01*
X141078015Y-105508273D01*
X140982562Y-105442835D01*
X140934750Y-105409883D01*
X140867505Y-105364727D01*
X140810564Y-105328943D01*
X140771354Y-105307062D01*
X140758619Y-105302437D01*
X140740083Y-105314915D01*
X140699059Y-105349748D01*
X140639525Y-105403322D01*
X140565458Y-105472017D01*
X140480835Y-105552219D01*
X140427315Y-105603714D01*
X140333681Y-105695714D01*
X140252759Y-105778001D01*
X140187823Y-105847055D01*
X140142142Y-105899356D01*
X140118989Y-105931384D01*
X140116768Y-105937884D01*
X140127076Y-105962606D01*
X140155561Y-106012595D01*
X140199063Y-106082788D01*
X140254423Y-106168125D01*
X140318480Y-106263544D01*
X140336697Y-106290146D01*
X140403073Y-106386833D01*
X140462622Y-106473883D01*
X140512016Y-106546405D01*
X140547925Y-106599507D01*
X140567019Y-106628297D01*
X140568864Y-106631274D01*
X140566105Y-106654218D01*
X140551462Y-106704664D01*
X140527487Y-106775959D01*
X140496734Y-106861453D01*
X140461756Y-106954493D01*
X140425107Y-107048426D01*
X140389339Y-107136601D01*
X140357006Y-107212366D01*
X140330662Y-107269069D01*
X140312858Y-107300057D01*
X140311593Y-107301543D01*
X140300706Y-107310399D01*
X140282318Y-107319157D01*
X140252394Y-107328723D01*
X140206897Y-107340004D01*
X140141791Y-107353907D01*
X140053039Y-107371337D01*
X139936607Y-107393202D01*
X139788458Y-107420409D01*
X139756382Y-107426259D01*
X139661314Y-107444626D01*
X139578435Y-107462595D01*
X139515070Y-107478431D01*
X139478542Y-107490400D01*
X139473644Y-107493190D01*
X139465573Y-107517928D01*
X139459013Y-107573210D01*
X139453967Y-107652611D01*
X139450441Y-107749704D01*
X139448439Y-107858062D01*
X139447964Y-107971260D01*
X139449023Y-108082872D01*
X139451618Y-108186471D01*
X139455754Y-108275632D01*
X139461437Y-108343928D01*
X139468669Y-108384934D01*
X139473029Y-108393326D01*
X139497302Y-108401792D01*
X139552574Y-108415565D01*
X139633338Y-108433450D01*
X139734088Y-108454252D01*
X139849317Y-108476777D01*
X139912098Y-108488582D01*
X140031213Y-108510849D01*
X140137435Y-108531021D01*
X140225573Y-108548085D01*
X140290434Y-108561031D01*
X140326826Y-108568845D01*
X140332816Y-108570578D01*
X140342939Y-108590110D01*
X140364338Y-108637157D01*
X140394161Y-108704997D01*
X140429555Y-108786909D01*
X140467668Y-108876172D01*
X140505647Y-108966065D01*
X140540640Y-109049865D01*
X140569794Y-109120853D01*
X140590257Y-109172306D01*
X140599177Y-109197503D01*
X140599343Y-109198604D01*
X140589231Y-109218481D01*
X140560883Y-109264223D01*
X140517277Y-109331283D01*
X140461394Y-109415116D01*
X140396213Y-109511174D01*
X140358321Y-109566350D01*
X140289275Y-109667519D01*
X140227950Y-109759370D01*
X140177337Y-109837256D01*
X140140429Y-109896531D01*
X140120218Y-109932549D01*
X140117299Y-109940623D01*
X140129847Y-109959416D01*
X140164537Y-109999543D01*
X140216937Y-110056507D01*
X140282616Y-110125815D01*
X140357144Y-110202969D01*
X140436087Y-110283475D01*
X140515017Y-110362837D01*
X140589500Y-110436560D01*
X140655106Y-110500148D01*
X140707404Y-110549106D01*
X140741961Y-110578939D01*
X140753522Y-110586058D01*
X140772346Y-110576047D01*
X140817369Y-110547922D01*
X140884213Y-110504546D01*
X140968501Y-110448782D01*
X141065856Y-110383494D01*
X141139293Y-110333754D01*
X141510333Y-110081449D01*
X142128905Y-110336445D01*
X142212725Y-110781069D01*
X142296546Y-111225693D01*
X143221994Y-111225693D01*
X143305814Y-110781069D01*
X143305814Y-110781069D01*
G37*
X143305814Y-110781069D02*
X143389635Y-110336445D01*
X143698920Y-110208947D01*
X144008206Y-110081449D01*
X144379246Y-110333754D01*
X144483157Y-110404004D01*
X144577087Y-110466728D01*
X144656652Y-110519062D01*
X144717470Y-110558143D01*
X144755157Y-110581107D01*
X144765421Y-110586058D01*
X144783910Y-110573324D01*
X144823420Y-110538118D01*
X144879522Y-110484938D01*
X144947787Y-110418282D01*
X145023786Y-110342646D01*
X145103092Y-110262528D01*
X145181275Y-110182426D01*
X145253907Y-110106836D01*
X145316559Y-110040255D01*
X145364803Y-109987182D01*
X145394210Y-109952113D01*
X145401241Y-109940377D01*
X145391123Y-109918740D01*
X145362759Y-109871338D01*
X145319129Y-109802807D01*
X145263218Y-109717785D01*
X145198006Y-109620907D01*
X145160219Y-109565650D01*
X145091343Y-109464752D01*
X145030140Y-109373701D01*
X144979578Y-109297030D01*
X144942628Y-109239272D01*
X144922258Y-109204957D01*
X144919197Y-109197746D01*
X144926136Y-109177252D01*
X144945051Y-109129487D01*
X144973087Y-109061168D01*
X145007391Y-108979011D01*
X145045109Y-108889730D01*
X145083387Y-108800042D01*
X145119370Y-108716662D01*
X145150206Y-108646306D01*
X145173039Y-108595690D01*
X145185017Y-108571529D01*
X145185724Y-108570578D01*
X145204531Y-108565964D01*
X145254618Y-108555672D01*
X145330793Y-108540713D01*
X145427865Y-108522099D01*
X145540643Y-108500841D01*
X145606442Y-108488582D01*
X145726950Y-108465638D01*
X145835797Y-108443805D01*
X145927476Y-108424278D01*
X145996481Y-108408252D01*
X146037304Y-108396921D01*
X146045511Y-108393326D01*
X146053548Y-108368994D01*
X146060033Y-108314041D01*
X146064970Y-108234892D01*
X146068364Y-108137974D01*
X146070218Y-108029713D01*
X146070538Y-107916535D01*
X146069327Y-107804865D01*
X146066590Y-107701132D01*
X146062331Y-107611759D01*
X146056555Y-107543174D01*
X146049267Y-107501803D01*
X146044895Y-107493190D01*
X146018764Y-107482867D01*
X145963393Y-107468108D01*
X145886107Y-107450648D01*
X145794230Y-107432220D01*
X145762158Y-107426259D01*
X145607524Y-107397934D01*
X145485375Y-107375124D01*
X145391673Y-107356920D01*
X145322384Y-107342417D01*
X145273471Y-107330708D01*
X145240897Y-107320885D01*
X145220628Y-107312044D01*
X145208626Y-107303276D01*
X145206947Y-107301543D01*
X145190184Y-107273629D01*
X145164614Y-107219305D01*
X145132788Y-107145223D01*
X145097260Y-107058035D01*
X145060583Y-106964392D01*
X145025311Y-106870948D01*
X144993996Y-106784353D01*
X144969193Y-106711260D01*
X144953454Y-106658322D01*
X144949332Y-106632189D01*
X144949676Y-106631274D01*
X144963641Y-106609914D01*
X144995322Y-106562916D01*
X145041391Y-106495173D01*
X145098518Y-106411577D01*
X145163373Y-106317018D01*
X145181843Y-106290146D01*
X145247699Y-106192725D01*
X145305650Y-106103837D01*
X145352538Y-106028588D01*
X145385207Y-105972080D01*
X145400500Y-105939419D01*
X145401241Y-105935407D01*
X145388392Y-105914316D01*
X145352888Y-105872536D01*
X145299293Y-105814555D01*
X145232171Y-105744865D01*
X145156087Y-105667955D01*
X145075604Y-105588317D01*
X144995287Y-105510439D01*
X144919699Y-105438814D01*
X144853405Y-105377930D01*
X144800969Y-105332279D01*
X144766955Y-105306350D01*
X144757545Y-105302117D01*
X144735643Y-105312088D01*
X144690800Y-105338980D01*
X144630321Y-105378264D01*
X144583789Y-105409883D01*
X144499475Y-105467902D01*
X144399626Y-105536216D01*
X144299473Y-105604421D01*
X144245627Y-105640925D01*
X144063371Y-105764200D01*
X143910381Y-105681480D01*
X143840682Y-105645241D01*
X143781414Y-105617074D01*
X143741311Y-105601009D01*
X143731103Y-105598774D01*
X143718829Y-105615278D01*
X143694613Y-105661918D01*
X143660263Y-105734391D01*
X143617588Y-105828394D01*
X143568394Y-105939626D01*
X143514490Y-106063785D01*
X143457684Y-106196568D01*
X143399782Y-106333673D01*
X143342593Y-106470798D01*
X143287924Y-106603642D01*
X143237584Y-106727902D01*
X143193380Y-106839275D01*
X143157119Y-106933461D01*
X143130609Y-107006156D01*
X143115658Y-107053059D01*
X143113254Y-107069167D01*
X143132311Y-107089714D01*
X143174036Y-107123067D01*
X143229706Y-107162298D01*
X143234378Y-107165401D01*
X143378264Y-107280577D01*
X143494283Y-107414947D01*
X143581430Y-107564216D01*
X143638699Y-107724087D01*
X143665086Y-107890263D01*
X143659585Y-108058448D01*
X143621190Y-108224345D01*
X143548895Y-108383658D01*
X143527626Y-108418513D01*
X143416996Y-108559263D01*
X143286302Y-108672286D01*
X143140064Y-108756997D01*
X142982808Y-108812806D01*
X142819057Y-108839126D01*
X142653333Y-108835370D01*
X142490162Y-108800950D01*
X142334065Y-108735277D01*
X142189567Y-108637765D01*
X142144869Y-108598187D01*
X142031112Y-108474297D01*
X141948218Y-108343876D01*
X141891356Y-108197685D01*
X141859687Y-108052912D01*
X141851869Y-107890140D01*
X141877938Y-107726560D01*
X141935245Y-107567702D01*
X142021144Y-107419094D01*
X142132986Y-107286265D01*
X142268123Y-107174744D01*
X142285883Y-107162989D01*
X142342150Y-107124492D01*
X142384923Y-107091137D01*
X142405372Y-107069840D01*
X142405669Y-107069167D01*
X142401279Y-107046129D01*
X142383876Y-106993843D01*
X142355268Y-106916610D01*
X142317265Y-106818732D01*
X142271674Y-106704509D01*
X142220303Y-106578242D01*
X142164962Y-106444233D01*
X142107458Y-106306782D01*
X142049601Y-106170192D01*
X141993198Y-106038763D01*
X141940058Y-105916795D01*
X141891990Y-105808591D01*
X141850801Y-105718451D01*
X141818301Y-105650677D01*
X141796297Y-105609570D01*
X141787436Y-105598774D01*
X141760360Y-105607181D01*
X141709697Y-105629728D01*
X141644183Y-105662387D01*
X141608159Y-105681480D01*
X141455168Y-105764200D01*
X141272912Y-105640925D01*
X141179875Y-105577772D01*
X141078015Y-105508273D01*
X140982562Y-105442835D01*
X140934750Y-105409883D01*
X140867505Y-105364727D01*
X140810564Y-105328943D01*
X140771354Y-105307062D01*
X140758619Y-105302437D01*
X140740083Y-105314915D01*
X140699059Y-105349748D01*
X140639525Y-105403322D01*
X140565458Y-105472017D01*
X140480835Y-105552219D01*
X140427315Y-105603714D01*
X140333681Y-105695714D01*
X140252759Y-105778001D01*
X140187823Y-105847055D01*
X140142142Y-105899356D01*
X140118989Y-105931384D01*
X140116768Y-105937884D01*
X140127076Y-105962606D01*
X140155561Y-106012595D01*
X140199063Y-106082788D01*
X140254423Y-106168125D01*
X140318480Y-106263544D01*
X140336697Y-106290146D01*
X140403073Y-106386833D01*
X140462622Y-106473883D01*
X140512016Y-106546405D01*
X140547925Y-106599507D01*
X140567019Y-106628297D01*
X140568864Y-106631274D01*
X140566105Y-106654218D01*
X140551462Y-106704664D01*
X140527487Y-106775959D01*
X140496734Y-106861453D01*
X140461756Y-106954493D01*
X140425107Y-107048426D01*
X140389339Y-107136601D01*
X140357006Y-107212366D01*
X140330662Y-107269069D01*
X140312858Y-107300057D01*
X140311593Y-107301543D01*
X140300706Y-107310399D01*
X140282318Y-107319157D01*
X140252394Y-107328723D01*
X140206897Y-107340004D01*
X140141791Y-107353907D01*
X140053039Y-107371337D01*
X139936607Y-107393202D01*
X139788458Y-107420409D01*
X139756382Y-107426259D01*
X139661314Y-107444626D01*
X139578435Y-107462595D01*
X139515070Y-107478431D01*
X139478542Y-107490400D01*
X139473644Y-107493190D01*
X139465573Y-107517928D01*
X139459013Y-107573210D01*
X139453967Y-107652611D01*
X139450441Y-107749704D01*
X139448439Y-107858062D01*
X139447964Y-107971260D01*
X139449023Y-108082872D01*
X139451618Y-108186471D01*
X139455754Y-108275632D01*
X139461437Y-108343928D01*
X139468669Y-108384934D01*
X139473029Y-108393326D01*
X139497302Y-108401792D01*
X139552574Y-108415565D01*
X139633338Y-108433450D01*
X139734088Y-108454252D01*
X139849317Y-108476777D01*
X139912098Y-108488582D01*
X140031213Y-108510849D01*
X140137435Y-108531021D01*
X140225573Y-108548085D01*
X140290434Y-108561031D01*
X140326826Y-108568845D01*
X140332816Y-108570578D01*
X140342939Y-108590110D01*
X140364338Y-108637157D01*
X140394161Y-108704997D01*
X140429555Y-108786909D01*
X140467668Y-108876172D01*
X140505647Y-108966065D01*
X140540640Y-109049865D01*
X140569794Y-109120853D01*
X140590257Y-109172306D01*
X140599177Y-109197503D01*
X140599343Y-109198604D01*
X140589231Y-109218481D01*
X140560883Y-109264223D01*
X140517277Y-109331283D01*
X140461394Y-109415116D01*
X140396213Y-109511174D01*
X140358321Y-109566350D01*
X140289275Y-109667519D01*
X140227950Y-109759370D01*
X140177337Y-109837256D01*
X140140429Y-109896531D01*
X140120218Y-109932549D01*
X140117299Y-109940623D01*
X140129847Y-109959416D01*
X140164537Y-109999543D01*
X140216937Y-110056507D01*
X140282616Y-110125815D01*
X140357144Y-110202969D01*
X140436087Y-110283475D01*
X140515017Y-110362837D01*
X140589500Y-110436560D01*
X140655106Y-110500148D01*
X140707404Y-110549106D01*
X140741961Y-110578939D01*
X140753522Y-110586058D01*
X140772346Y-110576047D01*
X140817369Y-110547922D01*
X140884213Y-110504546D01*
X140968501Y-110448782D01*
X141065856Y-110383494D01*
X141139293Y-110333754D01*
X141510333Y-110081449D01*
X142128905Y-110336445D01*
X142212725Y-110781069D01*
X142296546Y-111225693D01*
X143221994Y-111225693D01*
X143305814Y-110781069D01*
D10*
X127135715Y-73214286D02*
X127164286Y-73242857D01*
X127250000Y-73271429D01*
X127307143Y-73271429D01*
X127392858Y-73242857D01*
X127450000Y-73185714D01*
X127478572Y-73128571D01*
X127507143Y-73014286D01*
X127507143Y-72928571D01*
X127478572Y-72814286D01*
X127450000Y-72757143D01*
X127392858Y-72700000D01*
X127307143Y-72671429D01*
X127250000Y-72671429D01*
X127164286Y-72700000D01*
X127135715Y-72728571D01*
X126564286Y-73271429D02*
X126907143Y-73271429D01*
X126735715Y-73271429D02*
X126735715Y-72671429D01*
X126792858Y-72757143D01*
X126850000Y-72814286D01*
X126907143Y-72842857D01*
X126192857Y-72671429D02*
X126135714Y-72671429D01*
X126078571Y-72700000D01*
X126050000Y-72728571D01*
X126021429Y-72785714D01*
X125992857Y-72900000D01*
X125992857Y-73042857D01*
X126021429Y-73157143D01*
X126050000Y-73214286D01*
X126078571Y-73242857D01*
X126135714Y-73271429D01*
X126192857Y-73271429D01*
X126250000Y-73242857D01*
X126278571Y-73214286D01*
X126307143Y-73157143D01*
X126335714Y-73042857D01*
X126335714Y-72900000D01*
X126307143Y-72785714D01*
X126278571Y-72728571D01*
X126250000Y-72700000D01*
X126192857Y-72671429D01*
X127135715Y-69714286D02*
X127164286Y-69742857D01*
X127250000Y-69771429D01*
X127307143Y-69771429D01*
X127392858Y-69742857D01*
X127450000Y-69685714D01*
X127478572Y-69628571D01*
X127507143Y-69514286D01*
X127507143Y-69428571D01*
X127478572Y-69314286D01*
X127450000Y-69257143D01*
X127392858Y-69200000D01*
X127307143Y-69171429D01*
X127250000Y-69171429D01*
X127164286Y-69200000D01*
X127135715Y-69228571D01*
X126564286Y-69771429D02*
X126907143Y-69771429D01*
X126735715Y-69771429D02*
X126735715Y-69171429D01*
X126792858Y-69257143D01*
X126850000Y-69314286D01*
X126907143Y-69342857D01*
X125992857Y-69771429D02*
X126335714Y-69771429D01*
X126164286Y-69771429D02*
X126164286Y-69171429D01*
X126221429Y-69257143D01*
X126278571Y-69314286D01*
X126335714Y-69342857D01*
X148600000Y-78271429D02*
X148800000Y-77985714D01*
X148942857Y-78271429D02*
X148942857Y-77671429D01*
X148714285Y-77671429D01*
X148657143Y-77700000D01*
X148628571Y-77728571D01*
X148600000Y-77785714D01*
X148600000Y-77871429D01*
X148628571Y-77928571D01*
X148657143Y-77957143D01*
X148714285Y-77985714D01*
X148942857Y-77985714D01*
X148314285Y-78271429D02*
X148200000Y-78271429D01*
X148142857Y-78242857D01*
X148114285Y-78214286D01*
X148057143Y-78128571D01*
X148028571Y-78014286D01*
X148028571Y-77785714D01*
X148057143Y-77728571D01*
X148085714Y-77700000D01*
X148142857Y-77671429D01*
X148257143Y-77671429D01*
X148314285Y-77700000D01*
X148342857Y-77728571D01*
X148371428Y-77785714D01*
X148371428Y-77928571D01*
X148342857Y-77985714D01*
X148314285Y-78014286D01*
X148257143Y-78042857D01*
X148142857Y-78042857D01*
X148085714Y-78014286D01*
X148057143Y-77985714D01*
X148028571Y-77928571D01*
X141985715Y-81921429D02*
X141585715Y-82521429D01*
X141585715Y-81921429D02*
X141985715Y-82521429D01*
X141042857Y-82521429D02*
X141385714Y-82521429D01*
X141214286Y-82521429D02*
X141214286Y-81921429D01*
X141271429Y-82007143D01*
X141328571Y-82064286D01*
X141385714Y-82092857D01*
X132985715Y-62921429D02*
X132585715Y-63521429D01*
X132585715Y-62921429D02*
X132985715Y-63521429D01*
X132385714Y-62978571D02*
X132357143Y-62950000D01*
X132300000Y-62921429D01*
X132157143Y-62921429D01*
X132100000Y-62950000D01*
X132071429Y-62978571D01*
X132042857Y-63035714D01*
X132042857Y-63092857D01*
X132071429Y-63178571D01*
X132414286Y-63521429D01*
X132042857Y-63521429D01*
X145050000Y-73242857D02*
X144964286Y-73271429D01*
X144821429Y-73271429D01*
X144764286Y-73242857D01*
X144735715Y-73214286D01*
X144707143Y-73157143D01*
X144707143Y-73100000D01*
X144735715Y-73042857D01*
X144764286Y-73014286D01*
X144821429Y-72985714D01*
X144935715Y-72957143D01*
X144992857Y-72928571D01*
X145021429Y-72900000D01*
X145050000Y-72842857D01*
X145050000Y-72785714D01*
X145021429Y-72728571D01*
X144992857Y-72700000D01*
X144935715Y-72671429D01*
X144792857Y-72671429D01*
X144707143Y-72700000D01*
X144507143Y-72671429D02*
X144364286Y-73271429D01*
X144250000Y-72842857D01*
X144135714Y-73271429D01*
X143992857Y-72671429D01*
X143478572Y-72671429D02*
X143764286Y-72671429D01*
X143792857Y-72957143D01*
X143764286Y-72928571D01*
X143707143Y-72900000D01*
X143564286Y-72900000D01*
X143507143Y-72928571D01*
X143478572Y-72957143D01*
X143450000Y-73014286D01*
X143450000Y-73157143D01*
X143478572Y-73214286D01*
X143507143Y-73242857D01*
X143564286Y-73271429D01*
X143707143Y-73271429D01*
X143764286Y-73242857D01*
X143792857Y-73214286D01*
M02*
