G04 #@! TF.FileFunction,Legend,Top*
%FSLAX46Y46*%
G04 Gerber Fmt 4.6, Leading zero omitted, Abs format (unit mm)*
G04 Created by KiCad (PCBNEW 4.0.5) date 03/28/17 16:53:09*
%MOMM*%
%LPD*%
G01*
G04 APERTURE LIST*
%ADD10C,0.100000*%
%ADD11C,0.120000*%
%ADD12C,0.150000*%
G04 APERTURE END LIST*
D10*
D11*
X139850000Y-117750000D02*
X139850000Y-116750000D01*
X138150000Y-116750000D02*
X138150000Y-117750000D01*
X139750000Y-90400000D02*
X138750000Y-90400000D01*
X138750000Y-92100000D02*
X139750000Y-92100000D01*
X140500000Y-92150000D02*
X139500000Y-92150000D01*
X139500000Y-93850000D02*
X140500000Y-93850000D01*
X142250000Y-113400000D02*
X141250000Y-113400000D01*
X141250000Y-115100000D02*
X142250000Y-115100000D01*
X147350000Y-78500000D02*
X147350000Y-77500000D01*
X145650000Y-77500000D02*
X145650000Y-78500000D01*
X140750000Y-105730000D02*
X138750000Y-105730000D01*
X138750000Y-107770000D02*
X140750000Y-107770000D01*
X136752513Y-74545406D02*
X136045406Y-75252513D01*
X137247487Y-76454594D02*
X137954594Y-75747487D01*
X126500000Y-67350000D02*
X127500000Y-67350000D01*
X127500000Y-65650000D02*
X126500000Y-65650000D01*
X141500000Y-111230000D02*
X139500000Y-111230000D01*
X139500000Y-113270000D02*
X141500000Y-113270000D01*
X126650000Y-111000000D02*
X126650000Y-106350000D01*
X129850000Y-111000000D02*
X129850000Y-106350000D01*
X129850000Y-106350000D02*
X129050000Y-106350000D01*
X137000000Y-101650000D02*
X141650000Y-101650000D01*
X137000000Y-104850000D02*
X141650000Y-104850000D01*
X141650000Y-104850000D02*
X141650000Y-104050000D01*
X137000000Y-94400000D02*
X141650000Y-94400000D01*
X137000000Y-97600000D02*
X141650000Y-97600000D01*
X141650000Y-97600000D02*
X141650000Y-96800000D01*
X148390000Y-87410000D02*
X148390000Y-83590000D01*
X148390000Y-83590000D02*
X146610000Y-83590000D01*
X146610000Y-83590000D02*
X146610000Y-87410000D01*
X148390000Y-87410000D02*
X146610000Y-87410000D01*
X150390000Y-82270000D02*
X150390000Y-79730000D01*
X148610000Y-79730000D02*
X148610000Y-82270000D01*
X148610000Y-79730000D02*
X150390000Y-79730000D01*
X150390000Y-82270000D02*
X148610000Y-82270000D01*
D12*
X143825000Y-111790000D02*
X143825000Y-106710000D01*
X149540000Y-112425000D02*
X144460000Y-112425000D01*
X150175000Y-106710000D02*
X150175000Y-111790000D01*
X144460000Y-106075000D02*
X149540000Y-106075000D01*
X149540000Y-112425000D02*
X150175000Y-111790000D01*
X143825000Y-111790000D02*
X144460000Y-112425000D01*
X150175000Y-106710000D02*
X149540000Y-106075000D01*
X143825000Y-106710000D02*
X144460000Y-106075000D01*
D11*
X128400000Y-119750000D02*
X136100000Y-119750000D01*
X128400000Y-120750000D02*
X136100000Y-120750000D01*
X136100000Y-120750000D02*
X136100000Y-111550000D01*
X136100000Y-111550000D02*
X128400000Y-111550000D01*
X128400000Y-111550000D02*
X128400000Y-120750000D01*
X133980000Y-106110000D02*
X131320000Y-106110000D01*
X131320000Y-106110000D02*
X131320000Y-108890000D01*
X131320000Y-108890000D02*
X133980000Y-108890000D01*
X133980000Y-108890000D02*
X133980000Y-106110000D01*
X135250000Y-106110000D02*
X136640000Y-106110000D01*
X136640000Y-106110000D02*
X136640000Y-107500000D01*
X131900000Y-109120000D02*
X133100000Y-109120000D01*
X133100000Y-110880000D02*
X131900000Y-110880000D01*
X142350000Y-120630000D02*
X141150000Y-120630000D01*
X141150000Y-118870000D02*
X142350000Y-118870000D01*
X129100000Y-99130000D02*
X127900000Y-99130000D01*
X127900000Y-97370000D02*
X129100000Y-97370000D01*
X144600000Y-99130000D02*
X143400000Y-99130000D01*
X143400000Y-97370000D02*
X144600000Y-97370000D01*
X133900000Y-97370000D02*
X135100000Y-97370000D01*
X135100000Y-99130000D02*
X133900000Y-99130000D01*
X149400000Y-97370000D02*
X150600000Y-97370000D01*
X150600000Y-99130000D02*
X149400000Y-99130000D01*
X131130000Y-78650000D02*
X131130000Y-79850000D01*
X129370000Y-79850000D02*
X129370000Y-78650000D01*
X129380000Y-78650000D02*
X129380000Y-79850000D01*
X127620000Y-79850000D02*
X127620000Y-78650000D01*
X128100000Y-82630000D02*
X126900000Y-82630000D01*
X126900000Y-80870000D02*
X128100000Y-80870000D01*
X129100000Y-84630000D02*
X127900000Y-84630000D01*
X127900000Y-82870000D02*
X129100000Y-82870000D01*
X132100000Y-84630000D02*
X130900000Y-84630000D01*
X130900000Y-82870000D02*
X132100000Y-82870000D01*
X127380000Y-76650000D02*
X127380000Y-77850000D01*
X125620000Y-77850000D02*
X125620000Y-76650000D01*
X140140000Y-116100000D02*
X140140000Y-117900000D01*
X143360000Y-117900000D02*
X143360000Y-115450000D01*
D12*
X146325000Y-82625000D02*
X145750000Y-82625000D01*
X146325000Y-88375000D02*
X145675000Y-88375000D01*
X135675000Y-88375000D02*
X136325000Y-88375000D01*
X135675000Y-82625000D02*
X136325000Y-82625000D01*
X146325000Y-82625000D02*
X146325000Y-88375000D01*
X135675000Y-82625000D02*
X135675000Y-88375000D01*
X145750000Y-82625000D02*
X145750000Y-81025000D01*
X138125000Y-107875000D02*
X138125000Y-108025000D01*
X141375000Y-107875000D02*
X141375000Y-108122500D01*
X141375000Y-111125000D02*
X141375000Y-110877500D01*
X138125000Y-111125000D02*
X138125000Y-110877500D01*
X138125000Y-107875000D02*
X141375000Y-107875000D01*
X138125000Y-111125000D02*
X141375000Y-111125000D01*
X138125000Y-108025000D02*
X137200000Y-108025000D01*
X132250000Y-76126524D02*
X132409099Y-75967425D01*
X127123476Y-71000000D02*
X127353286Y-70770190D01*
X132250000Y-65873476D02*
X132020190Y-66103286D01*
X137376524Y-71000000D02*
X137146714Y-71229810D01*
X132250000Y-76126524D02*
X132020190Y-75896714D01*
X137376524Y-71000000D02*
X137146714Y-70770190D01*
X132250000Y-65873476D02*
X132479810Y-66103286D01*
X127123476Y-71000000D02*
X127353286Y-71229810D01*
X132409099Y-75967425D02*
X133416726Y-76975052D01*
D11*
X139850000Y-99630000D02*
X138650000Y-99630000D01*
X138650000Y-97870000D02*
X139850000Y-97870000D01*
X139850000Y-101380000D02*
X138650000Y-101380000D01*
X138650000Y-99620000D02*
X139850000Y-99620000D01*
X144640000Y-69980000D02*
X144640000Y-64780000D01*
X144640000Y-64780000D02*
X139320000Y-64780000D01*
X139320000Y-64780000D02*
X139320000Y-72640000D01*
X139320000Y-72640000D02*
X141980000Y-72640000D01*
X141980000Y-72640000D02*
X141980000Y-69980000D01*
X141980000Y-69980000D02*
X144640000Y-69980000D01*
X144640000Y-71250000D02*
X144640000Y-72640000D01*
X144640000Y-72640000D02*
X143250000Y-72640000D01*
X135630000Y-59150000D02*
X135630000Y-60350000D01*
X133870000Y-60350000D02*
X133870000Y-59150000D01*
X132100000Y-63880000D02*
X130900000Y-63880000D01*
X130900000Y-62120000D02*
X132100000Y-62120000D01*
X134850000Y-53130000D02*
X133650000Y-53130000D01*
X133650000Y-51370000D02*
X134850000Y-51370000D01*
X133100000Y-57610000D02*
X134900000Y-57610000D01*
X134900000Y-54390000D02*
X132450000Y-54390000D01*
X132150000Y-61090000D02*
X132150000Y-60690000D01*
X132150000Y-60690000D02*
X133550000Y-60690000D01*
X132150000Y-61090000D02*
X127350000Y-61090000D01*
X132150000Y-57890000D02*
X127350000Y-57890000D01*
D12*
X150120000Y-67750000D02*
X150120000Y-78620000D01*
X128380000Y-78620000D02*
X150120000Y-78620000D01*
X128380000Y-67750000D02*
X128380000Y-78620000D01*
X128380000Y-67720000D02*
X150120000Y-67720000D01*
X132250000Y-87150000D02*
X146250000Y-87150000D01*
X146250000Y-87150000D02*
X146250000Y-89150000D01*
X132250000Y-87150000D02*
X132250000Y-89150000D01*
X152900000Y-61350000D02*
X152900000Y-89150000D01*
X125600000Y-61350000D02*
X125600000Y-89150000D01*
X146250000Y-89150000D02*
X152900000Y-89150000D01*
X125600000Y-89150000D02*
X132250000Y-89150000D01*
X125600000Y-61350000D02*
X152900000Y-61350000D01*
X128500000Y-97250000D02*
X134500000Y-97250000D01*
X128500000Y-90750000D02*
X134500000Y-90750000D01*
X134500000Y-97250000D02*
X134500000Y-90750000D01*
X128500000Y-97250000D02*
X128500000Y-90750000D01*
X144000000Y-97250000D02*
X150000000Y-97250000D01*
X144000000Y-90750000D02*
X150000000Y-90750000D01*
X150000000Y-97250000D02*
X150000000Y-90750000D01*
X144000000Y-97250000D02*
X144000000Y-90750000D01*
X134500000Y-99250000D02*
X128500000Y-99250000D01*
X134500000Y-105750000D02*
X128500000Y-105750000D01*
X128500000Y-99250000D02*
X128500000Y-105750000D01*
X134500000Y-99250000D02*
X134500000Y-105750000D01*
X150000000Y-99250000D02*
X144000000Y-99250000D01*
X150000000Y-105750000D02*
X144000000Y-105750000D01*
X144000000Y-99250000D02*
X144000000Y-105750000D01*
X150000000Y-99250000D02*
X150000000Y-105750000D01*
D11*
X152680000Y-60280000D02*
X152680000Y-50920000D01*
X152680000Y-50920000D02*
X135890000Y-50920000D01*
X135890000Y-50920000D02*
X135890000Y-60280000D01*
X152680000Y-60280000D02*
X151050000Y-60280000D01*
X135890000Y-60280000D02*
X137520000Y-60280000D01*
X148950000Y-60280000D02*
X147240000Y-60280000D01*
X145140000Y-60280000D02*
X143430000Y-60280000D01*
X141330000Y-60280000D02*
X139620000Y-60280000D01*
X152680000Y-54200000D02*
X135890000Y-54200000D01*
X149700000Y-61600000D02*
X150000000Y-61000000D01*
X150000000Y-61000000D02*
X150300000Y-61600000D01*
X150300000Y-61600000D02*
X149700000Y-61600000D01*
D10*
X137900000Y-115464286D02*
X137871429Y-115492857D01*
X137785715Y-115521429D01*
X137728572Y-115521429D01*
X137642857Y-115492857D01*
X137585715Y-115435714D01*
X137557143Y-115378571D01*
X137528572Y-115264286D01*
X137528572Y-115178571D01*
X137557143Y-115064286D01*
X137585715Y-115007143D01*
X137642857Y-114950000D01*
X137728572Y-114921429D01*
X137785715Y-114921429D01*
X137871429Y-114950000D01*
X137900000Y-114978571D01*
X138471429Y-115521429D02*
X138128572Y-115521429D01*
X138300000Y-115521429D02*
X138300000Y-114921429D01*
X138242857Y-115007143D01*
X138185715Y-115064286D01*
X138128572Y-115092857D01*
X136900000Y-90964286D02*
X136871429Y-90992857D01*
X136785715Y-91021429D01*
X136728572Y-91021429D01*
X136642857Y-90992857D01*
X136585715Y-90935714D01*
X136557143Y-90878571D01*
X136528572Y-90764286D01*
X136528572Y-90678571D01*
X136557143Y-90564286D01*
X136585715Y-90507143D01*
X136642857Y-90450000D01*
X136728572Y-90421429D01*
X136785715Y-90421429D01*
X136871429Y-90450000D01*
X136900000Y-90478571D01*
X137128572Y-90478571D02*
X137157143Y-90450000D01*
X137214286Y-90421429D01*
X137357143Y-90421429D01*
X137414286Y-90450000D01*
X137442857Y-90478571D01*
X137471429Y-90535714D01*
X137471429Y-90592857D01*
X137442857Y-90678571D01*
X137100000Y-91021429D01*
X137471429Y-91021429D01*
X137650000Y-92964286D02*
X137621429Y-92992857D01*
X137535715Y-93021429D01*
X137478572Y-93021429D01*
X137392857Y-92992857D01*
X137335715Y-92935714D01*
X137307143Y-92878571D01*
X137278572Y-92764286D01*
X137278572Y-92678571D01*
X137307143Y-92564286D01*
X137335715Y-92507143D01*
X137392857Y-92450000D01*
X137478572Y-92421429D01*
X137535715Y-92421429D01*
X137621429Y-92450000D01*
X137650000Y-92478571D01*
X137850000Y-92421429D02*
X138221429Y-92421429D01*
X138021429Y-92650000D01*
X138107143Y-92650000D01*
X138164286Y-92678571D01*
X138192857Y-92707143D01*
X138221429Y-92764286D01*
X138221429Y-92907143D01*
X138192857Y-92964286D01*
X138164286Y-92992857D01*
X138107143Y-93021429D01*
X137935715Y-93021429D01*
X137878572Y-92992857D01*
X137850000Y-92964286D01*
X139400000Y-114214286D02*
X139371429Y-114242857D01*
X139285715Y-114271429D01*
X139228572Y-114271429D01*
X139142857Y-114242857D01*
X139085715Y-114185714D01*
X139057143Y-114128571D01*
X139028572Y-114014286D01*
X139028572Y-113928571D01*
X139057143Y-113814286D01*
X139085715Y-113757143D01*
X139142857Y-113700000D01*
X139228572Y-113671429D01*
X139285715Y-113671429D01*
X139371429Y-113700000D01*
X139400000Y-113728571D01*
X139914286Y-113871429D02*
X139914286Y-114271429D01*
X139771429Y-113642857D02*
X139628572Y-114071429D01*
X140000000Y-114071429D01*
X146400000Y-76214286D02*
X146371429Y-76242857D01*
X146285715Y-76271429D01*
X146228572Y-76271429D01*
X146142857Y-76242857D01*
X146085715Y-76185714D01*
X146057143Y-76128571D01*
X146028572Y-76014286D01*
X146028572Y-75928571D01*
X146057143Y-75814286D01*
X146085715Y-75757143D01*
X146142857Y-75700000D01*
X146228572Y-75671429D01*
X146285715Y-75671429D01*
X146371429Y-75700000D01*
X146400000Y-75728571D01*
X146942857Y-75671429D02*
X146657143Y-75671429D01*
X146628572Y-75957143D01*
X146657143Y-75928571D01*
X146714286Y-75900000D01*
X146857143Y-75900000D01*
X146914286Y-75928571D01*
X146942857Y-75957143D01*
X146971429Y-76014286D01*
X146971429Y-76157143D01*
X146942857Y-76214286D01*
X146914286Y-76242857D01*
X146857143Y-76271429D01*
X146714286Y-76271429D01*
X146657143Y-76242857D01*
X146628572Y-76214286D01*
X137900000Y-105714286D02*
X137871429Y-105742857D01*
X137785715Y-105771429D01*
X137728572Y-105771429D01*
X137642857Y-105742857D01*
X137585715Y-105685714D01*
X137557143Y-105628571D01*
X137528572Y-105514286D01*
X137528572Y-105428571D01*
X137557143Y-105314286D01*
X137585715Y-105257143D01*
X137642857Y-105200000D01*
X137728572Y-105171429D01*
X137785715Y-105171429D01*
X137871429Y-105200000D01*
X137900000Y-105228571D01*
X138414286Y-105171429D02*
X138300000Y-105171429D01*
X138242857Y-105200000D01*
X138214286Y-105228571D01*
X138157143Y-105314286D01*
X138128572Y-105428571D01*
X138128572Y-105657143D01*
X138157143Y-105714286D01*
X138185715Y-105742857D01*
X138242857Y-105771429D01*
X138357143Y-105771429D01*
X138414286Y-105742857D01*
X138442857Y-105714286D01*
X138471429Y-105657143D01*
X138471429Y-105514286D01*
X138442857Y-105457143D01*
X138414286Y-105428571D01*
X138357143Y-105400000D01*
X138242857Y-105400000D01*
X138185715Y-105428571D01*
X138157143Y-105457143D01*
X138128572Y-105514286D01*
X135330812Y-77472234D02*
X135330812Y-77512639D01*
X135290407Y-77593452D01*
X135250001Y-77633858D01*
X135169188Y-77674264D01*
X135088376Y-77674263D01*
X135027766Y-77654061D01*
X134926752Y-77593452D01*
X134866142Y-77532842D01*
X134805533Y-77431828D01*
X134785330Y-77371218D01*
X134785330Y-77290406D01*
X134825737Y-77209594D01*
X134866143Y-77169188D01*
X134946955Y-77128781D01*
X134987360Y-77128781D01*
X135088376Y-76946955D02*
X135371219Y-76664112D01*
X135613655Y-77270203D01*
X126150000Y-68214286D02*
X126121429Y-68242857D01*
X126035715Y-68271429D01*
X125978572Y-68271429D01*
X125892857Y-68242857D01*
X125835715Y-68185714D01*
X125807143Y-68128571D01*
X125778572Y-68014286D01*
X125778572Y-67928571D01*
X125807143Y-67814286D01*
X125835715Y-67757143D01*
X125892857Y-67700000D01*
X125978572Y-67671429D01*
X126035715Y-67671429D01*
X126121429Y-67700000D01*
X126150000Y-67728571D01*
X126492857Y-67928571D02*
X126435715Y-67900000D01*
X126407143Y-67871429D01*
X126378572Y-67814286D01*
X126378572Y-67785714D01*
X126407143Y-67728571D01*
X126435715Y-67700000D01*
X126492857Y-67671429D01*
X126607143Y-67671429D01*
X126664286Y-67700000D01*
X126692857Y-67728571D01*
X126721429Y-67785714D01*
X126721429Y-67814286D01*
X126692857Y-67871429D01*
X126664286Y-67900000D01*
X126607143Y-67928571D01*
X126492857Y-67928571D01*
X126435715Y-67957143D01*
X126407143Y-67985714D01*
X126378572Y-68042857D01*
X126378572Y-68157143D01*
X126407143Y-68214286D01*
X126435715Y-68242857D01*
X126492857Y-68271429D01*
X126607143Y-68271429D01*
X126664286Y-68242857D01*
X126692857Y-68214286D01*
X126721429Y-68157143D01*
X126721429Y-68042857D01*
X126692857Y-67985714D01*
X126664286Y-67957143D01*
X126607143Y-67928571D01*
X143150000Y-112964286D02*
X143121429Y-112992857D01*
X143035715Y-113021429D01*
X142978572Y-113021429D01*
X142892857Y-112992857D01*
X142835715Y-112935714D01*
X142807143Y-112878571D01*
X142778572Y-112764286D01*
X142778572Y-112678571D01*
X142807143Y-112564286D01*
X142835715Y-112507143D01*
X142892857Y-112450000D01*
X142978572Y-112421429D01*
X143035715Y-112421429D01*
X143121429Y-112450000D01*
X143150000Y-112478571D01*
X143435715Y-113021429D02*
X143550000Y-113021429D01*
X143607143Y-112992857D01*
X143635715Y-112964286D01*
X143692857Y-112878571D01*
X143721429Y-112764286D01*
X143721429Y-112535714D01*
X143692857Y-112478571D01*
X143664286Y-112450000D01*
X143607143Y-112421429D01*
X143492857Y-112421429D01*
X143435715Y-112450000D01*
X143407143Y-112478571D01*
X143378572Y-112535714D01*
X143378572Y-112678571D01*
X143407143Y-112735714D01*
X143435715Y-112764286D01*
X143492857Y-112792857D01*
X143607143Y-112792857D01*
X143664286Y-112764286D01*
X143692857Y-112735714D01*
X143721429Y-112678571D01*
X125557143Y-109021429D02*
X125557143Y-108421429D01*
X125700000Y-108421429D01*
X125785715Y-108450000D01*
X125842857Y-108507143D01*
X125871429Y-108564286D01*
X125900000Y-108678571D01*
X125900000Y-108764286D01*
X125871429Y-108878571D01*
X125842857Y-108935714D01*
X125785715Y-108992857D01*
X125700000Y-109021429D01*
X125557143Y-109021429D01*
X126471429Y-109021429D02*
X126128572Y-109021429D01*
X126300000Y-109021429D02*
X126300000Y-108421429D01*
X126242857Y-108507143D01*
X126185715Y-108564286D01*
X126128572Y-108592857D01*
X135807143Y-103271429D02*
X135807143Y-102671429D01*
X135950000Y-102671429D01*
X136035715Y-102700000D01*
X136092857Y-102757143D01*
X136121429Y-102814286D01*
X136150000Y-102928571D01*
X136150000Y-103014286D01*
X136121429Y-103128571D01*
X136092857Y-103185714D01*
X136035715Y-103242857D01*
X135950000Y-103271429D01*
X135807143Y-103271429D01*
X136378572Y-102728571D02*
X136407143Y-102700000D01*
X136464286Y-102671429D01*
X136607143Y-102671429D01*
X136664286Y-102700000D01*
X136692857Y-102728571D01*
X136721429Y-102785714D01*
X136721429Y-102842857D01*
X136692857Y-102928571D01*
X136350000Y-103271429D01*
X136721429Y-103271429D01*
X137057143Y-94271429D02*
X137057143Y-93671429D01*
X137200000Y-93671429D01*
X137285715Y-93700000D01*
X137342857Y-93757143D01*
X137371429Y-93814286D01*
X137400000Y-93928571D01*
X137400000Y-94014286D01*
X137371429Y-94128571D01*
X137342857Y-94185714D01*
X137285715Y-94242857D01*
X137200000Y-94271429D01*
X137057143Y-94271429D01*
X137600000Y-93671429D02*
X137971429Y-93671429D01*
X137771429Y-93900000D01*
X137857143Y-93900000D01*
X137914286Y-93928571D01*
X137942857Y-93957143D01*
X137971429Y-94014286D01*
X137971429Y-94157143D01*
X137942857Y-94214286D01*
X137914286Y-94242857D01*
X137857143Y-94271429D01*
X137685715Y-94271429D01*
X137628572Y-94242857D01*
X137600000Y-94214286D01*
X149000000Y-83921429D02*
X149000000Y-84350000D01*
X148971428Y-84435714D01*
X148914285Y-84492857D01*
X148828571Y-84521429D01*
X148771428Y-84521429D01*
X149285714Y-84521429D02*
X149285714Y-83921429D01*
X149514286Y-83921429D01*
X149571428Y-83950000D01*
X149600000Y-83978571D01*
X149628571Y-84035714D01*
X149628571Y-84121429D01*
X149600000Y-84178571D01*
X149571428Y-84207143D01*
X149514286Y-84235714D01*
X149285714Y-84235714D01*
X150200000Y-84521429D02*
X149857143Y-84521429D01*
X150028571Y-84521429D02*
X150028571Y-83921429D01*
X149971428Y-84007143D01*
X149914286Y-84064286D01*
X149857143Y-84092857D01*
X149000000Y-78921429D02*
X149000000Y-79350000D01*
X148971428Y-79435714D01*
X148914285Y-79492857D01*
X148828571Y-79521429D01*
X148771428Y-79521429D01*
X149285714Y-79521429D02*
X149285714Y-78921429D01*
X149514286Y-78921429D01*
X149571428Y-78950000D01*
X149600000Y-78978571D01*
X149628571Y-79035714D01*
X149628571Y-79121429D01*
X149600000Y-79178571D01*
X149571428Y-79207143D01*
X149514286Y-79235714D01*
X149285714Y-79235714D01*
X149857143Y-78978571D02*
X149885714Y-78950000D01*
X149942857Y-78921429D01*
X150085714Y-78921429D01*
X150142857Y-78950000D01*
X150171428Y-78978571D01*
X150200000Y-79035714D01*
X150200000Y-79092857D01*
X150171428Y-79178571D01*
X149828571Y-79521429D01*
X150200000Y-79521429D01*
X142900000Y-108021429D02*
X142614286Y-108021429D01*
X142614286Y-107421429D01*
X143414286Y-108021429D02*
X143071429Y-108021429D01*
X143242857Y-108021429D02*
X143242857Y-107421429D01*
X143185714Y-107507143D01*
X143128572Y-107564286D01*
X143071429Y-107592857D01*
X126557143Y-115771429D02*
X126557143Y-115171429D01*
X126785715Y-115171429D01*
X126842857Y-115200000D01*
X126871429Y-115228571D01*
X126900000Y-115285714D01*
X126900000Y-115371429D01*
X126871429Y-115428571D01*
X126842857Y-115457143D01*
X126785715Y-115485714D01*
X126557143Y-115485714D01*
X127471429Y-115771429D02*
X127128572Y-115771429D01*
X127300000Y-115771429D02*
X127300000Y-115171429D01*
X127242857Y-115257143D01*
X127185715Y-115314286D01*
X127128572Y-115342857D01*
X134557143Y-109521429D02*
X134557143Y-108921429D01*
X134785715Y-108921429D01*
X134842857Y-108950000D01*
X134871429Y-108978571D01*
X134900000Y-109035714D01*
X134900000Y-109121429D01*
X134871429Y-109178571D01*
X134842857Y-109207143D01*
X134785715Y-109235714D01*
X134557143Y-109235714D01*
X135100000Y-108921429D02*
X135471429Y-108921429D01*
X135271429Y-109150000D01*
X135357143Y-109150000D01*
X135414286Y-109178571D01*
X135442857Y-109207143D01*
X135471429Y-109264286D01*
X135471429Y-109407143D01*
X135442857Y-109464286D01*
X135414286Y-109492857D01*
X135357143Y-109521429D01*
X135185715Y-109521429D01*
X135128572Y-109492857D01*
X135100000Y-109464286D01*
X130400000Y-110271429D02*
X130200000Y-109985714D01*
X130057143Y-110271429D02*
X130057143Y-109671429D01*
X130285715Y-109671429D01*
X130342857Y-109700000D01*
X130371429Y-109728571D01*
X130400000Y-109785714D01*
X130400000Y-109871429D01*
X130371429Y-109928571D01*
X130342857Y-109957143D01*
X130285715Y-109985714D01*
X130057143Y-109985714D01*
X130971429Y-110271429D02*
X130628572Y-110271429D01*
X130800000Y-110271429D02*
X130800000Y-109671429D01*
X130742857Y-109757143D01*
X130685715Y-109814286D01*
X130628572Y-109842857D01*
X139400000Y-120021429D02*
X139200000Y-119735714D01*
X139057143Y-120021429D02*
X139057143Y-119421429D01*
X139285715Y-119421429D01*
X139342857Y-119450000D01*
X139371429Y-119478571D01*
X139400000Y-119535714D01*
X139400000Y-119621429D01*
X139371429Y-119678571D01*
X139342857Y-119707143D01*
X139285715Y-119735714D01*
X139057143Y-119735714D01*
X139628572Y-119478571D02*
X139657143Y-119450000D01*
X139714286Y-119421429D01*
X139857143Y-119421429D01*
X139914286Y-119450000D01*
X139942857Y-119478571D01*
X139971429Y-119535714D01*
X139971429Y-119592857D01*
X139942857Y-119678571D01*
X139600000Y-120021429D01*
X139971429Y-120021429D01*
X126400000Y-98521429D02*
X126200000Y-98235714D01*
X126057143Y-98521429D02*
X126057143Y-97921429D01*
X126285715Y-97921429D01*
X126342857Y-97950000D01*
X126371429Y-97978571D01*
X126400000Y-98035714D01*
X126400000Y-98121429D01*
X126371429Y-98178571D01*
X126342857Y-98207143D01*
X126285715Y-98235714D01*
X126057143Y-98235714D01*
X126600000Y-97921429D02*
X126971429Y-97921429D01*
X126771429Y-98150000D01*
X126857143Y-98150000D01*
X126914286Y-98178571D01*
X126942857Y-98207143D01*
X126971429Y-98264286D01*
X126971429Y-98407143D01*
X126942857Y-98464286D01*
X126914286Y-98492857D01*
X126857143Y-98521429D01*
X126685715Y-98521429D01*
X126628572Y-98492857D01*
X126600000Y-98464286D01*
X141900000Y-98521429D02*
X141700000Y-98235714D01*
X141557143Y-98521429D02*
X141557143Y-97921429D01*
X141785715Y-97921429D01*
X141842857Y-97950000D01*
X141871429Y-97978571D01*
X141900000Y-98035714D01*
X141900000Y-98121429D01*
X141871429Y-98178571D01*
X141842857Y-98207143D01*
X141785715Y-98235714D01*
X141557143Y-98235714D01*
X142414286Y-98121429D02*
X142414286Y-98521429D01*
X142271429Y-97892857D02*
X142128572Y-98321429D01*
X142500000Y-98321429D01*
X132400000Y-98521429D02*
X132200000Y-98235714D01*
X132057143Y-98521429D02*
X132057143Y-97921429D01*
X132285715Y-97921429D01*
X132342857Y-97950000D01*
X132371429Y-97978571D01*
X132400000Y-98035714D01*
X132400000Y-98121429D01*
X132371429Y-98178571D01*
X132342857Y-98207143D01*
X132285715Y-98235714D01*
X132057143Y-98235714D01*
X132942857Y-97921429D02*
X132657143Y-97921429D01*
X132628572Y-98207143D01*
X132657143Y-98178571D01*
X132714286Y-98150000D01*
X132857143Y-98150000D01*
X132914286Y-98178571D01*
X132942857Y-98207143D01*
X132971429Y-98264286D01*
X132971429Y-98407143D01*
X132942857Y-98464286D01*
X132914286Y-98492857D01*
X132857143Y-98521429D01*
X132714286Y-98521429D01*
X132657143Y-98492857D01*
X132628572Y-98464286D01*
X147900000Y-98521429D02*
X147700000Y-98235714D01*
X147557143Y-98521429D02*
X147557143Y-97921429D01*
X147785715Y-97921429D01*
X147842857Y-97950000D01*
X147871429Y-97978571D01*
X147900000Y-98035714D01*
X147900000Y-98121429D01*
X147871429Y-98178571D01*
X147842857Y-98207143D01*
X147785715Y-98235714D01*
X147557143Y-98235714D01*
X148414286Y-97921429D02*
X148300000Y-97921429D01*
X148242857Y-97950000D01*
X148214286Y-97978571D01*
X148157143Y-98064286D01*
X148128572Y-98178571D01*
X148128572Y-98407143D01*
X148157143Y-98464286D01*
X148185715Y-98492857D01*
X148242857Y-98521429D01*
X148357143Y-98521429D01*
X148414286Y-98492857D01*
X148442857Y-98464286D01*
X148471429Y-98407143D01*
X148471429Y-98264286D01*
X148442857Y-98207143D01*
X148414286Y-98178571D01*
X148357143Y-98150000D01*
X148242857Y-98150000D01*
X148185715Y-98178571D01*
X148157143Y-98207143D01*
X148128572Y-98264286D01*
X131650000Y-79521429D02*
X131450000Y-79235714D01*
X131307143Y-79521429D02*
X131307143Y-78921429D01*
X131535715Y-78921429D01*
X131592857Y-78950000D01*
X131621429Y-78978571D01*
X131650000Y-79035714D01*
X131650000Y-79121429D01*
X131621429Y-79178571D01*
X131592857Y-79207143D01*
X131535715Y-79235714D01*
X131307143Y-79235714D01*
X131850000Y-78921429D02*
X132250000Y-78921429D01*
X131992857Y-79521429D01*
X126900000Y-79521429D02*
X126700000Y-79235714D01*
X126557143Y-79521429D02*
X126557143Y-78921429D01*
X126785715Y-78921429D01*
X126842857Y-78950000D01*
X126871429Y-78978571D01*
X126900000Y-79035714D01*
X126900000Y-79121429D01*
X126871429Y-79178571D01*
X126842857Y-79207143D01*
X126785715Y-79235714D01*
X126557143Y-79235714D01*
X127242857Y-79178571D02*
X127185715Y-79150000D01*
X127157143Y-79121429D01*
X127128572Y-79064286D01*
X127128572Y-79035714D01*
X127157143Y-78978571D01*
X127185715Y-78950000D01*
X127242857Y-78921429D01*
X127357143Y-78921429D01*
X127414286Y-78950000D01*
X127442857Y-78978571D01*
X127471429Y-79035714D01*
X127471429Y-79064286D01*
X127442857Y-79121429D01*
X127414286Y-79150000D01*
X127357143Y-79178571D01*
X127242857Y-79178571D01*
X127185715Y-79207143D01*
X127157143Y-79235714D01*
X127128572Y-79292857D01*
X127128572Y-79407143D01*
X127157143Y-79464286D01*
X127185715Y-79492857D01*
X127242857Y-79521429D01*
X127357143Y-79521429D01*
X127414286Y-79492857D01*
X127442857Y-79464286D01*
X127471429Y-79407143D01*
X127471429Y-79292857D01*
X127442857Y-79235714D01*
X127414286Y-79207143D01*
X127357143Y-79178571D01*
X129364285Y-82021429D02*
X129164285Y-81735714D01*
X129021428Y-82021429D02*
X129021428Y-81421429D01*
X129250000Y-81421429D01*
X129307142Y-81450000D01*
X129335714Y-81478571D01*
X129364285Y-81535714D01*
X129364285Y-81621429D01*
X129335714Y-81678571D01*
X129307142Y-81707143D01*
X129250000Y-81735714D01*
X129021428Y-81735714D01*
X129935714Y-82021429D02*
X129592857Y-82021429D01*
X129764285Y-82021429D02*
X129764285Y-81421429D01*
X129707142Y-81507143D01*
X129650000Y-81564286D01*
X129592857Y-81592857D01*
X130307143Y-81421429D02*
X130364286Y-81421429D01*
X130421429Y-81450000D01*
X130450000Y-81478571D01*
X130478571Y-81535714D01*
X130507143Y-81650000D01*
X130507143Y-81792857D01*
X130478571Y-81907143D01*
X130450000Y-81964286D01*
X130421429Y-81992857D01*
X130364286Y-82021429D01*
X130307143Y-82021429D01*
X130250000Y-81992857D01*
X130221429Y-81964286D01*
X130192857Y-81907143D01*
X130164286Y-81792857D01*
X130164286Y-81650000D01*
X130192857Y-81535714D01*
X130221429Y-81478571D01*
X130250000Y-81450000D01*
X130307143Y-81421429D01*
X127021429Y-84135715D02*
X126735714Y-84335715D01*
X127021429Y-84478572D02*
X126421429Y-84478572D01*
X126421429Y-84250000D01*
X126450000Y-84192858D01*
X126478571Y-84164286D01*
X126535714Y-84135715D01*
X126621429Y-84135715D01*
X126678571Y-84164286D01*
X126707143Y-84192858D01*
X126735714Y-84250000D01*
X126735714Y-84478572D01*
X127021429Y-83564286D02*
X127021429Y-83907143D01*
X127021429Y-83735715D02*
X126421429Y-83735715D01*
X126507143Y-83792858D01*
X126564286Y-83850000D01*
X126592857Y-83907143D01*
X127021429Y-82992857D02*
X127021429Y-83335714D01*
X127021429Y-83164286D02*
X126421429Y-83164286D01*
X126507143Y-83221429D01*
X126564286Y-83278571D01*
X126592857Y-83335714D01*
X131114285Y-85521429D02*
X130914285Y-85235714D01*
X130771428Y-85521429D02*
X130771428Y-84921429D01*
X131000000Y-84921429D01*
X131057142Y-84950000D01*
X131085714Y-84978571D01*
X131114285Y-85035714D01*
X131114285Y-85121429D01*
X131085714Y-85178571D01*
X131057142Y-85207143D01*
X131000000Y-85235714D01*
X130771428Y-85235714D01*
X131685714Y-85521429D02*
X131342857Y-85521429D01*
X131514285Y-85521429D02*
X131514285Y-84921429D01*
X131457142Y-85007143D01*
X131400000Y-85064286D01*
X131342857Y-85092857D01*
X131914286Y-84978571D02*
X131942857Y-84950000D01*
X132000000Y-84921429D01*
X132142857Y-84921429D01*
X132200000Y-84950000D01*
X132228571Y-84978571D01*
X132257143Y-85035714D01*
X132257143Y-85092857D01*
X132228571Y-85178571D01*
X131885714Y-85521429D01*
X132257143Y-85521429D01*
X126114285Y-75771429D02*
X125914285Y-75485714D01*
X125771428Y-75771429D02*
X125771428Y-75171429D01*
X126000000Y-75171429D01*
X126057142Y-75200000D01*
X126085714Y-75228571D01*
X126114285Y-75285714D01*
X126114285Y-75371429D01*
X126085714Y-75428571D01*
X126057142Y-75457143D01*
X126000000Y-75485714D01*
X125771428Y-75485714D01*
X126685714Y-75771429D02*
X126342857Y-75771429D01*
X126514285Y-75771429D02*
X126514285Y-75171429D01*
X126457142Y-75257143D01*
X126400000Y-75314286D01*
X126342857Y-75342857D01*
X126885714Y-75171429D02*
X127257143Y-75171429D01*
X127057143Y-75400000D01*
X127142857Y-75400000D01*
X127200000Y-75428571D01*
X127228571Y-75457143D01*
X127257143Y-75514286D01*
X127257143Y-75657143D01*
X127228571Y-75714286D01*
X127200000Y-75742857D01*
X127142857Y-75771429D01*
X126971429Y-75771429D01*
X126914286Y-75742857D01*
X126885714Y-75714286D01*
X143542857Y-116671429D02*
X143542857Y-117157143D01*
X143571429Y-117214286D01*
X143600000Y-117242857D01*
X143657143Y-117271429D01*
X143771429Y-117271429D01*
X143828571Y-117242857D01*
X143857143Y-117214286D01*
X143885714Y-117157143D01*
X143885714Y-116671429D01*
X144485714Y-117271429D02*
X144142857Y-117271429D01*
X144314285Y-117271429D02*
X144314285Y-116671429D01*
X144257142Y-116757143D01*
X144200000Y-116814286D01*
X144142857Y-116842857D01*
X134292857Y-84921429D02*
X134292857Y-85407143D01*
X134321429Y-85464286D01*
X134350000Y-85492857D01*
X134407143Y-85521429D01*
X134521429Y-85521429D01*
X134578571Y-85492857D01*
X134607143Y-85464286D01*
X134635714Y-85407143D01*
X134635714Y-84921429D01*
X134892857Y-84978571D02*
X134921428Y-84950000D01*
X134978571Y-84921429D01*
X135121428Y-84921429D01*
X135178571Y-84950000D01*
X135207142Y-84978571D01*
X135235714Y-85035714D01*
X135235714Y-85092857D01*
X135207142Y-85178571D01*
X134864285Y-85521429D01*
X135235714Y-85521429D01*
X136042857Y-109171429D02*
X136042857Y-109657143D01*
X136071429Y-109714286D01*
X136100000Y-109742857D01*
X136157143Y-109771429D01*
X136271429Y-109771429D01*
X136328571Y-109742857D01*
X136357143Y-109714286D01*
X136385714Y-109657143D01*
X136385714Y-109171429D01*
X136614285Y-109171429D02*
X136985714Y-109171429D01*
X136785714Y-109400000D01*
X136871428Y-109400000D01*
X136928571Y-109428571D01*
X136957142Y-109457143D01*
X136985714Y-109514286D01*
X136985714Y-109657143D01*
X136957142Y-109714286D01*
X136928571Y-109742857D01*
X136871428Y-109771429D01*
X136700000Y-109771429D01*
X136642857Y-109742857D01*
X136614285Y-109714286D01*
X129194416Y-65590914D02*
X129537868Y-65934366D01*
X129598478Y-65954569D01*
X129638883Y-65954569D01*
X129699493Y-65934366D01*
X129780305Y-65853553D01*
X129800507Y-65792944D01*
X129800508Y-65752538D01*
X129780304Y-65691929D01*
X129436853Y-65348478D01*
X129840913Y-64944417D02*
X129638883Y-65146447D01*
X129820711Y-65368680D01*
X129820710Y-65328274D01*
X129840913Y-65267665D01*
X129941929Y-65166650D01*
X130002538Y-65146447D01*
X130042944Y-65146447D01*
X130103553Y-65166650D01*
X130204569Y-65267665D01*
X130224771Y-65328275D01*
X130224771Y-65368680D01*
X130204569Y-65429290D01*
X130103553Y-65530305D01*
X130042944Y-65550508D01*
X130002538Y-65550508D01*
X136614285Y-98521429D02*
X136414285Y-98235714D01*
X136271428Y-98521429D02*
X136271428Y-97921429D01*
X136500000Y-97921429D01*
X136557142Y-97950000D01*
X136585714Y-97978571D01*
X136614285Y-98035714D01*
X136614285Y-98121429D01*
X136585714Y-98178571D01*
X136557142Y-98207143D01*
X136500000Y-98235714D01*
X136271428Y-98235714D01*
X137185714Y-98521429D02*
X136842857Y-98521429D01*
X137014285Y-98521429D02*
X137014285Y-97921429D01*
X136957142Y-98007143D01*
X136900000Y-98064286D01*
X136842857Y-98092857D01*
X137700000Y-98121429D02*
X137700000Y-98521429D01*
X137557143Y-97892857D02*
X137414286Y-98321429D01*
X137785714Y-98321429D01*
X137771429Y-100385715D02*
X137485714Y-100585715D01*
X137771429Y-100728572D02*
X137171429Y-100728572D01*
X137171429Y-100500000D01*
X137200000Y-100442858D01*
X137228571Y-100414286D01*
X137285714Y-100385715D01*
X137371429Y-100385715D01*
X137428571Y-100414286D01*
X137457143Y-100442858D01*
X137485714Y-100500000D01*
X137485714Y-100728572D01*
X137771429Y-99814286D02*
X137771429Y-100157143D01*
X137771429Y-99985715D02*
X137171429Y-99985715D01*
X137257143Y-100042858D01*
X137314286Y-100100000D01*
X137342857Y-100157143D01*
X137171429Y-99271429D02*
X137171429Y-99557143D01*
X137457143Y-99585714D01*
X137428571Y-99557143D01*
X137400000Y-99500000D01*
X137400000Y-99357143D01*
X137428571Y-99300000D01*
X137457143Y-99271429D01*
X137514286Y-99242857D01*
X137657143Y-99242857D01*
X137714286Y-99271429D01*
X137742857Y-99300000D01*
X137771429Y-99357143D01*
X137771429Y-99500000D01*
X137742857Y-99557143D01*
X137714286Y-99585714D01*
X138057143Y-68771429D02*
X138057143Y-68171429D01*
X138285715Y-68171429D01*
X138342857Y-68200000D01*
X138371429Y-68228571D01*
X138400000Y-68285714D01*
X138400000Y-68371429D01*
X138371429Y-68428571D01*
X138342857Y-68457143D01*
X138285715Y-68485714D01*
X138057143Y-68485714D01*
X138914286Y-68371429D02*
X138914286Y-68771429D01*
X138771429Y-68142857D02*
X138628572Y-68571429D01*
X139000000Y-68571429D01*
X134364285Y-58271429D02*
X134164285Y-57985714D01*
X134021428Y-58271429D02*
X134021428Y-57671429D01*
X134250000Y-57671429D01*
X134307142Y-57700000D01*
X134335714Y-57728571D01*
X134364285Y-57785714D01*
X134364285Y-57871429D01*
X134335714Y-57928571D01*
X134307142Y-57957143D01*
X134250000Y-57985714D01*
X134021428Y-57985714D01*
X134935714Y-58271429D02*
X134592857Y-58271429D01*
X134764285Y-58271429D02*
X134764285Y-57671429D01*
X134707142Y-57757143D01*
X134650000Y-57814286D01*
X134592857Y-57842857D01*
X135450000Y-57671429D02*
X135335714Y-57671429D01*
X135278571Y-57700000D01*
X135250000Y-57728571D01*
X135192857Y-57814286D01*
X135164286Y-57928571D01*
X135164286Y-58157143D01*
X135192857Y-58214286D01*
X135221429Y-58242857D01*
X135278571Y-58271429D01*
X135392857Y-58271429D01*
X135450000Y-58242857D01*
X135478571Y-58214286D01*
X135507143Y-58157143D01*
X135507143Y-58014286D01*
X135478571Y-57957143D01*
X135450000Y-57928571D01*
X135392857Y-57900000D01*
X135278571Y-57900000D01*
X135221429Y-57928571D01*
X135192857Y-57957143D01*
X135164286Y-58014286D01*
X133771429Y-63385715D02*
X133485714Y-63585715D01*
X133771429Y-63728572D02*
X133171429Y-63728572D01*
X133171429Y-63500000D01*
X133200000Y-63442858D01*
X133228571Y-63414286D01*
X133285714Y-63385715D01*
X133371429Y-63385715D01*
X133428571Y-63414286D01*
X133457143Y-63442858D01*
X133485714Y-63500000D01*
X133485714Y-63728572D01*
X133771429Y-62814286D02*
X133771429Y-63157143D01*
X133771429Y-62985715D02*
X133171429Y-62985715D01*
X133257143Y-63042858D01*
X133314286Y-63100000D01*
X133342857Y-63157143D01*
X133171429Y-62614286D02*
X133171429Y-62214286D01*
X133771429Y-62471429D01*
X132114285Y-51271429D02*
X131914285Y-50985714D01*
X131771428Y-51271429D02*
X131771428Y-50671429D01*
X132000000Y-50671429D01*
X132057142Y-50700000D01*
X132085714Y-50728571D01*
X132114285Y-50785714D01*
X132114285Y-50871429D01*
X132085714Y-50928571D01*
X132057142Y-50957143D01*
X132000000Y-50985714D01*
X131771428Y-50985714D01*
X132685714Y-51271429D02*
X132342857Y-51271429D01*
X132514285Y-51271429D02*
X132514285Y-50671429D01*
X132457142Y-50757143D01*
X132400000Y-50814286D01*
X132342857Y-50842857D01*
X133028571Y-50928571D02*
X132971429Y-50900000D01*
X132942857Y-50871429D01*
X132914286Y-50814286D01*
X132914286Y-50785714D01*
X132942857Y-50728571D01*
X132971429Y-50700000D01*
X133028571Y-50671429D01*
X133142857Y-50671429D01*
X133200000Y-50700000D01*
X133228571Y-50728571D01*
X133257143Y-50785714D01*
X133257143Y-50814286D01*
X133228571Y-50871429D01*
X133200000Y-50900000D01*
X133142857Y-50928571D01*
X133028571Y-50928571D01*
X132971429Y-50957143D01*
X132942857Y-50985714D01*
X132914286Y-51042857D01*
X132914286Y-51157143D01*
X132942857Y-51214286D01*
X132971429Y-51242857D01*
X133028571Y-51271429D01*
X133142857Y-51271429D01*
X133200000Y-51242857D01*
X133228571Y-51214286D01*
X133257143Y-51157143D01*
X133257143Y-51042857D01*
X133228571Y-50985714D01*
X133200000Y-50957143D01*
X133142857Y-50928571D01*
X133542857Y-53671429D02*
X133542857Y-54157143D01*
X133571429Y-54214286D01*
X133600000Y-54242857D01*
X133657143Y-54271429D01*
X133771429Y-54271429D01*
X133828571Y-54242857D01*
X133857143Y-54214286D01*
X133885714Y-54157143D01*
X133885714Y-53671429D01*
X134428571Y-53871429D02*
X134428571Y-54271429D01*
X134285714Y-53642857D02*
X134142857Y-54071429D01*
X134514285Y-54071429D01*
X125792857Y-57421429D02*
X125792857Y-57907143D01*
X125821429Y-57964286D01*
X125850000Y-57992857D01*
X125907143Y-58021429D01*
X126021429Y-58021429D01*
X126078571Y-57992857D01*
X126107143Y-57964286D01*
X126135714Y-57907143D01*
X126135714Y-57421429D01*
X126678571Y-57421429D02*
X126564285Y-57421429D01*
X126507142Y-57450000D01*
X126478571Y-57478571D01*
X126421428Y-57564286D01*
X126392857Y-57678571D01*
X126392857Y-57907143D01*
X126421428Y-57964286D01*
X126450000Y-57992857D01*
X126507142Y-58021429D01*
X126621428Y-58021429D01*
X126678571Y-57992857D01*
X126707142Y-57964286D01*
X126735714Y-57907143D01*
X126735714Y-57764286D01*
X126707142Y-57707143D01*
X126678571Y-57678571D01*
X126621428Y-57650000D01*
X126507142Y-57650000D01*
X126450000Y-57678571D01*
X126421428Y-57707143D01*
X126392857Y-57764286D01*
D12*
X127511905Y-60952381D02*
X127511905Y-59952381D01*
X127892858Y-59952381D01*
X127988096Y-60000000D01*
X128035715Y-60047619D01*
X128083334Y-60142857D01*
X128083334Y-60285714D01*
X128035715Y-60380952D01*
X127988096Y-60428571D01*
X127892858Y-60476190D01*
X127511905Y-60476190D01*
X128940477Y-59952381D02*
X128750000Y-59952381D01*
X128654762Y-60000000D01*
X128607143Y-60047619D01*
X128511905Y-60190476D01*
X128464286Y-60380952D01*
X128464286Y-60761905D01*
X128511905Y-60857143D01*
X128559524Y-60904762D01*
X128654762Y-60952381D01*
X128845239Y-60952381D01*
X128940477Y-60904762D01*
X128988096Y-60857143D01*
X129035715Y-60761905D01*
X129035715Y-60523810D01*
X128988096Y-60428571D01*
X128940477Y-60380952D01*
X128845239Y-60333333D01*
X128654762Y-60333333D01*
X128559524Y-60380952D01*
X128511905Y-60428571D01*
X128464286Y-60523810D01*
D10*
X130700000Y-90492857D02*
X130785714Y-90521429D01*
X130928571Y-90521429D01*
X130985714Y-90492857D01*
X131014285Y-90464286D01*
X131042857Y-90407143D01*
X131042857Y-90350000D01*
X131014285Y-90292857D01*
X130985714Y-90264286D01*
X130928571Y-90235714D01*
X130814285Y-90207143D01*
X130757143Y-90178571D01*
X130728571Y-90150000D01*
X130700000Y-90092857D01*
X130700000Y-90035714D01*
X130728571Y-89978571D01*
X130757143Y-89950000D01*
X130814285Y-89921429D01*
X130957143Y-89921429D01*
X131042857Y-89950000D01*
X131242857Y-89921429D02*
X131385714Y-90521429D01*
X131500000Y-90092857D01*
X131614286Y-90521429D01*
X131757143Y-89921429D01*
X132300000Y-90521429D02*
X131957143Y-90521429D01*
X132128571Y-90521429D02*
X132128571Y-89921429D01*
X132071428Y-90007143D01*
X132014286Y-90064286D01*
X131957143Y-90092857D01*
X146450000Y-90492857D02*
X146535714Y-90521429D01*
X146678571Y-90521429D01*
X146735714Y-90492857D01*
X146764285Y-90464286D01*
X146792857Y-90407143D01*
X146792857Y-90350000D01*
X146764285Y-90292857D01*
X146735714Y-90264286D01*
X146678571Y-90235714D01*
X146564285Y-90207143D01*
X146507143Y-90178571D01*
X146478571Y-90150000D01*
X146450000Y-90092857D01*
X146450000Y-90035714D01*
X146478571Y-89978571D01*
X146507143Y-89950000D01*
X146564285Y-89921429D01*
X146707143Y-89921429D01*
X146792857Y-89950000D01*
X146992857Y-89921429D02*
X147135714Y-90521429D01*
X147250000Y-90092857D01*
X147364286Y-90521429D01*
X147507143Y-89921429D01*
X147707143Y-89978571D02*
X147735714Y-89950000D01*
X147792857Y-89921429D01*
X147935714Y-89921429D01*
X147992857Y-89950000D01*
X148021428Y-89978571D01*
X148050000Y-90035714D01*
X148050000Y-90092857D01*
X148021428Y-90178571D01*
X147678571Y-90521429D01*
X148050000Y-90521429D01*
X126700000Y-102242857D02*
X126785714Y-102271429D01*
X126928571Y-102271429D01*
X126985714Y-102242857D01*
X127014285Y-102214286D01*
X127042857Y-102157143D01*
X127042857Y-102100000D01*
X127014285Y-102042857D01*
X126985714Y-102014286D01*
X126928571Y-101985714D01*
X126814285Y-101957143D01*
X126757143Y-101928571D01*
X126728571Y-101900000D01*
X126700000Y-101842857D01*
X126700000Y-101785714D01*
X126728571Y-101728571D01*
X126757143Y-101700000D01*
X126814285Y-101671429D01*
X126957143Y-101671429D01*
X127042857Y-101700000D01*
X127242857Y-101671429D02*
X127385714Y-102271429D01*
X127500000Y-101842857D01*
X127614286Y-102271429D01*
X127757143Y-101671429D01*
X127928571Y-101671429D02*
X128300000Y-101671429D01*
X128100000Y-101900000D01*
X128185714Y-101900000D01*
X128242857Y-101928571D01*
X128271428Y-101957143D01*
X128300000Y-102014286D01*
X128300000Y-102157143D01*
X128271428Y-102214286D01*
X128242857Y-102242857D01*
X128185714Y-102271429D01*
X128014286Y-102271429D01*
X127957143Y-102242857D01*
X127928571Y-102214286D01*
X142200000Y-101992857D02*
X142285714Y-102021429D01*
X142428571Y-102021429D01*
X142485714Y-101992857D01*
X142514285Y-101964286D01*
X142542857Y-101907143D01*
X142542857Y-101850000D01*
X142514285Y-101792857D01*
X142485714Y-101764286D01*
X142428571Y-101735714D01*
X142314285Y-101707143D01*
X142257143Y-101678571D01*
X142228571Y-101650000D01*
X142200000Y-101592857D01*
X142200000Y-101535714D01*
X142228571Y-101478571D01*
X142257143Y-101450000D01*
X142314285Y-101421429D01*
X142457143Y-101421429D01*
X142542857Y-101450000D01*
X142742857Y-101421429D02*
X142885714Y-102021429D01*
X143000000Y-101592857D01*
X143114286Y-102021429D01*
X143257143Y-101421429D01*
X143742857Y-101621429D02*
X143742857Y-102021429D01*
X143600000Y-101392857D02*
X143457143Y-101821429D01*
X143828571Y-101821429D01*
X153521429Y-56442857D02*
X152921429Y-56442857D01*
X152921429Y-56214285D01*
X152950000Y-56157143D01*
X152978571Y-56128571D01*
X153035714Y-56100000D01*
X153121429Y-56100000D01*
X153178571Y-56128571D01*
X153207143Y-56157143D01*
X153235714Y-56214285D01*
X153235714Y-56442857D01*
X152978571Y-55871428D02*
X152950000Y-55842857D01*
X152921429Y-55785714D01*
X152921429Y-55642857D01*
X152950000Y-55585714D01*
X152978571Y-55557143D01*
X153035714Y-55528571D01*
X153092857Y-55528571D01*
X153178571Y-55557143D01*
X153521429Y-55900000D01*
X153521429Y-55528571D01*
M02*
